0x0000 0x0000 0x0000 0x0000 0x0000 0x0000 0x0000 0x0000 0x0000 0x0000 0x0000 0x0000 0x0000 0x0000 0x0000 0x0000 0x0000 0x0000 0x0000 0x0000 0x0000 0x0000 0x0000 0x0000 0x0000 0x0000 0x0000 0x0000
0x0000 0x0000 0x0000 0x0000 0x0000 0x0000 0x0000 0x0000 0x0000 0x0000 0x0000 0x0000 0x0000 0x0000 0x0000 0x0000 0x0000 0x0000 0x0000 0x0000 0x0000 0x0000 0x0000 0x0000 0x0000 0x0000 0x0000 0x0000
0x0000 0x0000 0x0000 0x0000 0x0000 0x0000 0x0000 0x0000 0x0000 0x0000 0x0000 0x0000 0x0000 0x0000 0x0000 0x0000 0x0000 0x0000 0x0000 0x0000 0x0000 0x0000 0x0000 0x0000 0x0000 0x0000 0x0000 0x0000
0x0000 0x0000 0x0000 0x0000 0x0000 0x0000 0x0000 0x0000 0x0000 0x0000 0x0000 0x0000 0x0000 0x0000 0x0000 0x0000 0x0000 0x0000 0x0000 0x0000 0x0000 0x0000 0x0000 0x0000 0x0000 0x0000 0x0000 0x0000
0x0000 0x0000 0x0000 0x0000 0x0000 0x0000 0x0000 0x0000 0x0000 0x0000 0x0000 0x0000 0x0000 0x0000 0x0000 0x0000 0x0000 0x0000 0x0000 0x0000 0x0000 0x0000 0x0000 0x0000 0x0000 0x0000 0x0000 0x0000
0x0000 0x0000 0x0000 0x0000 0x0000 0x0000 0x0000 0x0000 0x0000 0x0000 0x0000 0x0000 0x0000 0x0000 0x0000 0x0000 0x0000 0x0000 0x0000 0x0000 0x0000 0x0000 0x0000 0x0000 0x0000 0x0000 0x0000 0x0000
0x0000 0x0000 0x0000 0x0000 0x0000 0x0000 0x0000 0x0000 0x0000 0x0000 0x0000 0x0000 0x0000 0x0000 0x0000 0x0000 0x0000 0x0000 0x0000 0x0000 0x0000 0x0000 0x0000 0x0000 0x0001 0x0001 0x0001 0x0000
0x0000 0x0000 0x0000 0x0000 0x0000 0x0000 0x0000 0x0000 0x0000 0x0000 0x0000 0x0000 0x0000 0x0000 0x0000 0x0000 0x0000 0x0000 0x0000 0x0000 0x0000 0x0000 0x0001 0x0003 0x0006 0x0007 0x0007 0x0000
0x0000 0x0000 0x0000 0x0000 0x0000 0x0000 0x0000 0x0000 0x0001 0x0000 0x0000 0x0000 0x0000 0x0000 0x0000 0x0000 0x0000 0x0000 0x0000 0x0000 0x0000 0x0002 0x0006 0x000E 0x0015 0x0019 0x0017 0x0000
0x0000 0x0000 0x0000 0x0001 0x0003 0x0003 0x0007 0x0003 0x0006 0x0005 0x0002 0x0001 0x0000 0x0000 0x0000 0x0000 0x0000 0x0000 0x0000 0x0000 0x0002 0x000A 0x001C 0x0025 0x0030 0x0039 0x002E 0x0000
0x0000 0x0001 0x0003 0x0007 0x000D 0x0012 0x0016 0x0014 0x001D 0x0016 0x0013 0x000C 0x0003 0x0002 0x0000 0x0000 0x0000 0x0000 0x0000 0x0003 0x000B 0x0026 0x003F 0x0048 0x0057 0x005C 0x0056 0x0000
0x0002 0x0007 0x0011 0x0018 0x0027 0x0031 0x0034 0x003C 0x0041 0x003C 0x0035 0x0029 0x0015 0x0012 0x0003 0x0000 0x0000 0x0000 0x0002 0x0010 0x0025 0x004D 0x0073 0x0074 0x0072 0x006D 0x0070 0x0000
0x0014 0x001A 0x0032 0x0041 0x004C 0x0064 0x005D 0x006B 0x007A 0x006E 0x0062 0x0057 0x0051 0x0041 0x0014 0x0006 0x0004 0x0003 0x0015 0x0036 0x0058 0x0077 0x0083 0x008A 0x0080 0x007A 0x0071 0x0000
0x003D 0x0053 0x006F 0x0076 0x007D 0x008D 0x0094 0x009A 0x0097 0x009A 0x0097 0x009E 0x009C 0x007D 0x004F 0x0022 0x001B 0x0021 0x0045 0x007F 0x008D 0x0094 0x008B 0x0087 0x0074 0x0074 0x0070 0x0000
0x0078 0x009D 0x00AE 0x00B5 0x00B5 0x00B3 0x00AD 0x00B0 0x00B2 0x00C0 0x00C1 0x00C5 0x00DD 0x00C4 0x00AE 0x0067 0x0060 0x007D 0x00A8 0x00C4 0x00BE 0x009A 0x0082 0x0078 0x0081 0x0084 0x0064 0x0000
0x00C9 0x00ED 0x00E0 0x00DC 0x00D0 0x00BC 0x00C0 0x00B4 0x00AC 0x00C2 0x00C9 0x00D7 0x00E2 0x00E6 0x0102 0x00E4 0x00EA 0x010A 0x0117 0x00FC 0x00CF 0x00A0 0x0090 0x007D 0x007D 0x007D 0x0069 0x0000
0x0125 0x0119 0x00F0 0x00D8 0x00C6 0x00AF 0x00A6 0x00A2 0x009C 0x00A4 0x00A7 0x00AA 0x00B8 0x00D8 0x010B 0x0160 0x01A1 0x01B2 0x0159 0x010B 0x00DD 0x00A8 0x008D 0x0076 0x0084 0x0075 0x0059 0x0000
0x0165 0x0130 0x00E3 0x00B2 0x008B 0x0079 0x007C 0x006F 0x0068 0x0060 0x0067 0x006F 0x006D 0x008B 0x00E3 0x01AB 0x0200 0x01EC 0x016A 0x0115 0x00D3 0x00A7 0x0081 0x006C 0x0062 0x0056 0x004A 0x0000
0x0168 0x0133 0x00DF 0x0093 0x005D 0x0046 0x003C 0x003C 0x0032 0x0028 0x0030 0x002F 0x0031 0x004B 0x00CD 0x018E 0x01C0 0x019F 0x0150 0x0105 0x00DD 0x00AF 0x006B 0x0053 0x0048 0x003C 0x0039 0x0000
0x012A 0x010F 0x00E0 0x009D 0x0052 0x002C 0x001C 0x000E 0x000E 0x000A 0x000D 0x000C 0x0019 0x004E 0x00E4 0x012F 0x0101 0x00EA 0x010E 0x00FB 0x00D3 0x009E 0x007C 0x0056 0x003A 0x002A 0x0025 0x0000
0x00D1 0x00D5 0x00E0 0x00C2 0x006F 0x0041 0x0027 0x0007 0x0002 0x0001 0x0001 0x000C 0x003C 0x007E 0x00F8 0x00AB 0x005F 0x0055 0x00A8 0x00C7 0x00C8 0x009C 0x008A 0x005B 0x0043 0x0020 0x001E 0x0000
0x0075 0x0081 0x00BA 0x00C9 0x00AF 0x006D 0x004A 0x0011 0x0001 0x0000 0x0001 0x001E 0x0062 0x00B7 0x00CF 0x0046 0x000F 0x0012 0x0042 0x0084 0x00A0 0x0091 0x008E 0x0070 0x005F 0x0029 0x0019 0x0000
0x0032 0x0041 0x0077 0x00AE 0x00C0 0x00A0 0x006C 0x0021 0x0005 0x0000 0x000A 0x0044 0x00B0 0x00D2 0x007D 0x000D 0x0001 0x0002 0x0011 0x0036 0x006E 0x0083 0x007C 0x007B 0x0079 0x0044 0x002A 0x0000
0x000D 0x0015 0x003B 0x0076 0x00BE 0x00B8 0x008E 0x004D 0x0013 0x0004 0x0019 0x0077 0x00C7 0x00C3 0x0031 0x0001 0x0000 0x0000 0x0001 0x000D 0x003F 0x0081 0x0084 0x0087 0x0088 0x005C 0x0033 0x0000
0x0003 0x0003 0x0011 0x0043 0x0081 0x00B8 0x00A8 0x0075 0x0028 0x0019 0x0044 0x00B2 0x00CB 0x008E 0x000B 0x0000 0x0000 0x0000 0x0000 0x0003 0x0017 0x0056 0x0083 0x007E 0x0081 0x0075 0x005F 0x0000
0x0000 0x0000 0x0004 0x001E 0x0058 0x008C 0x00B0 0x0092 0x0057 0x003B 0x007B 0x00D4 0x008F 0x0046 0x0002 0x0000 0x0000 0x0000 0x0000 0x0000 0x0006 0x0039 0x0071 0x007C 0x0084 0x0088 0x0083 0x0000
0x0000 0x0000 0x0000 0x0007 0x0028 0x0062 0x0090 0x00AE 0x009D 0x008E 0x00B0 0x00BA 0x0059 0x001A 0x0000 0x0000 0x0000 0x0000 0x0000 0x0000 0x0000 0x0010 0x003D 0x006D 0x007C 0x009C 0x00C6 0x0000
0x0000 0x0000 0x0000 0x0001 0x0010 0x0030 0x0063 0x00AA 0x00E6 0x00DE 0x00D5 0x0083 0x002C 0x0005 0x0000 0x0000 0x0000 0x0000 0x0000 0x0000 0x0000 0x0005 0x001F 0x0055 0x007F 0x00AE 0x00D2 0x0000
0x0000 0x0000 0x0000 0x0000 0x0003 0x0018 0x0036 0x00B6 0x0114 0x0130 0x00F8 0x0048 0x000D 0x0000 0x0000 0x0000 0x0000 0x0000 0x0000 0x0000 0x0000 0x0000 0x000A 0x0035 0x0069 0x00B8 0x00DC 0x0000
0x0000 0x0000 0x0000 0x0000 0x0000 0x0006 0x0029 0x009C 0x0137 0x0158 0x00F5 0x003A 0x0004 0x0000 0x0000 0x0000 0x0000 0x0000 0x0000 0x0000 0x0000 0x0000 0x0004 0x001F 0x0066 0x00B6 0x00CD 0x0000
0x0000 0x0000 0x0000 0x0000 0x0001 0x0008 0x002D 0x00A0 0x0129 0x015F 0x00F4 0x004A 0x0009 0x0000 0x0000 0x0000 0x0000 0x0000 0x0000 0x0000 0x0000 0x0000 0x0007 0x0023 0x0064 0x00B4 0x00D9 0x0000
0x0000 0x0000 0x0000 0x0000 0x0006 0x0018 0x003C 0x009C 0x00FD 0x0123 0x00D4 0x0072 0x001C 0x0005 0x0000 0x0000 0x0000 0x0000 0x0000 0x0000 0x0000 0x0001 0x0015 0x0040 0x0078 0x00A7 0x00B9 0x0000
0x0000 0x0000 0x0000 0x0002 0x0015 0x0031 0x005B 0x00AA 0x00AB 0x00C4 0x00D3 0x00B1 0x0044 0x0010 0x0000 0x0000 0x0000 0x0000 0x0000 0x0000 0x0000 0x0007 0x002E 0x0061 0x0081 0x009B 0x00A8 0x0000
0x0000 0x0000 0x0000 0x000B 0x002F 0x0062 0x007E 0x00A9 0x0074 0x0065 0x009C 0x00C7 0x0080 0x002E 0x0002 0x0000 0x0000 0x0000 0x0000 0x0000 0x0002 0x0019 0x0058 0x0076 0x007F 0x0082 0x0080 0x0000
0x0000 0x0001 0x0005 0x001C 0x0058 0x0090 0x00A4 0x0096 0x004D 0x0030 0x0068 0x00BC 0x00B0 0x0066 0x000B 0x0000 0x0000 0x0000 0x0000 0x0001 0x0008 0x0037 0x006D 0x0078 0x007B 0x0070 0x006B 0x0000
0x0004 0x0006 0x0019 0x0047 0x008B 0x00A7 0x00AA 0x0065 0x002B 0x000F 0x002B 0x0084 0x00CD 0x00A4 0x0027 0x0001 0x0000 0x0000 0x0000 0x0006 0x001F 0x0059 0x0081 0x007A 0x0077 0x0065 0x003B 0x0000
0x0013 0x0017 0x0037 0x0071 0x00AF 0x00A9 0x0092 0x0040 0x0012 0x0002 0x0013 0x0054 0x00B8 0x00D1 0x006B 0x000A 0x0001 0x0000 0x0004 0x001D 0x0045 0x0084 0x0077 0x007E 0x0076 0x0053 0x0022 0x0000
0x0034 0x0043 0x0074 0x00A3 0x00B7 0x0090 0x006D 0x0021 0x0004 0x0000 0x0005 0x002C 0x0089 0x00C6 0x00BB 0x002A 0x000B 0x0005 0x001B 0x004F 0x0085 0x0095 0x007D 0x0083 0x0064 0x003B 0x0023 0x0000
0x006C 0x007F 0x00B6 0x00B9 0x009C 0x0073 0x0047 0x0011 0x0001 0x0000 0x0001 0x0012 0x0049 0x00A3 0x00DE 0x0070 0x003E 0x002B 0x0049 0x0092 0x00A2 0x009A 0x007B 0x0080 0x0052 0x002F 0x002B 0x0000
0x00BD 0x00B4 0x00DD 0x00B6 0x0076 0x0048 0x0027 0x0005 0x0001 0x0001 0x0000 0x0005 0x001E 0x005E 0x00DC 0x00E1 0x009C 0x0088 0x00AE 0x00D5 0x00BF 0x0084 0x0075 0x0063 0x003C 0x0029 0x002C 0x0000
0x0100 0x00EF 0x00D3 0x0097 0x004C 0x002B 0x0014 0x0006 0x0007 0x0006 0x0006 0x0009 0x000D 0x0033 0x00A3 0x0128 0x011F 0x0115 0x00FB 0x00E7 0x00BE 0x0088 0x0066 0x004F 0x0026 0x0026 0x002B 0x0000
0x0135 0x0116 0x00B6 0x007D 0x003A 0x002B 0x001A 0x0018 0x0019 0x001A 0x0018 0x001C 0x0019 0x0028 0x008F 0x0144 0x0181 0x017D 0x0134 0x00E3 0x00BA 0x0091 0x005A 0x0043 0x002B 0x002D 0x003C 0x0000
0x013A 0x0127 0x00C7 0x008A 0x005C 0x004A 0x0040 0x003A 0x0043 0x0045 0x0044 0x004B 0x0043 0x0062 0x00A1 0x0139 0x01AD 0x01AC 0x0156 0x00E8 0x00BB 0x00A4 0x006C 0x005E 0x0043 0x0048 0x0058 0x0000
0x011F 0x0121 0x00E0 0x00BC 0x0099 0x007C 0x0072 0x0077 0x0070 0x0072 0x0079 0x0080 0x008E 0x00B0 0x00EE 0x012F 0x016D 0x0183 0x0155 0x0102 0x00BA 0x00A6 0x007E 0x006E 0x006C 0x006F 0x0074 0x0000
0x00E3 0x00EA 0x00E9 0x00DC 0x00C6 0x00A6 0x00A9 0x009C 0x009D 0x009D 0x009F 0x00A9 0x00C0 0x00D7 0x00FD 0x00F6 0x00F6 0x0110 0x012A 0x0105 0x00DC 0x009A 0x008C 0x0078 0x0075 0x007C 0x0074 0x0000
0x00A0 0x00B3 0x00C3 0x00C9 0x00C7 0x00B3 0x00B9 0x00B6 0x00A2 0x00A2 0x00AC 0x00B9 0x00D6 0x00D5 0x00C7 0x0099 0x0073 0x0089 0x00B3 0x00D3 0x00C8 0x0091 0x0089 0x006B 0x0072 0x0072 0x0080 0x0000
0x0064 0x0063 0x0083 0x0095 0x00A0 0x00A8 0x00B4 0x00A0 0x00A2 0x009E 0x00A9 0x00B2 0x00B5 0x009C 0x0064 0x003D 0x0027 0x0021 0x0053 0x0082 0x00A7 0x0088 0x008E 0x0072 0x0068 0x006E 0x0077 0x0000
0x0034 0x0037 0x004D 0x0058 0x0070 0x0087 0x0087 0x008E 0x0089 0x0086 0x008C 0x008E 0x007F 0x0064 0x002B 0x0013 0x0009 0x0006 0x0016 0x003D 0x0061 0x0085 0x0081 0x0071 0x0069 0x0075 0x007C 0x0000
0x0013 0x0019 0x001F 0x0036 0x0041 0x005C 0x005E 0x0060 0x006C 0x006C 0x0066 0x0058 0x0044 0x0028 0x000D 0x0002 0x0000 0x0000 0x0003 0x0012 0x0033 0x0065 0x006F 0x007A 0x006C 0x0072 0x0067 0x0000
0x0006 0x0007 0x000E 0x0016 0x0022 0x0034 0x0031 0x003D 0x0041 0x0044 0x0035 0x0023 0x0017 0x000C 0x0002 0x0000 0x0000 0x0000 0x0000 0x0003 0x0010 0x003F 0x004B 0x005F 0x005F 0x0063 0x005F 0x0000
0x0001 0x0001 0x0002 0x0009 0x0010 0x0018 0x0018 0x001B 0x001F 0x0020 0x001B 0x000B 0x0007 0x0002 0x0000 0x0000 0x0000 0x0000 0x0000 0x0000 0x0004 0x001A 0x0033 0x0041 0x004C 0x0049 0x004D 0x0000
0x0000 0x0000 0x0000 0x0002 0x0004 0x0008 0x0007 0x000C 0x000B 0x000A 0x0007 0x0002 0x0000 0x0000 0x0000 0x0000 0x0000 0x0000 0x0000 0x0000 0x0000 0x000A 0x001C 0x0024 0x0035 0x0037 0x0035 0x0000
0x0000 0x0000 0x0000 0x0000 0x0000 0x0001 0x0003 0x0003 0x0003 0x0002 0x0001 0x0000 0x0000 0x0000 0x0000 0x0000 0x0000 0x0000 0x0000 0x0000 0x0000 0x0003 0x000D 0x0013 0x001E 0x0021 0x0020 0x0000
0x0000 0x0000 0x0000 0x0000 0x0000 0x0000 0x0000 0x0000 0x0000 0x0000 0x0000 0x0000 0x0000 0x0000 0x0000 0x0000 0x0000 0x0000 0x0000 0x0000 0x0000 0x0000 0x0004 0x0009 0x0012 0x0011 0x0010 0x0000
0x0000 0x0000 0x0000 0x0000 0x0000 0x0000 0x0000 0x0000 0x0000 0x0000 0x0000 0x0000 0x0000 0x0000 0x0000 0x0000 0x0000 0x0000 0x0000 0x0000 0x0000 0x0000 0x0001 0x0003 0x0008 0x0007 0x0008 0x0000
0x0000 0x0000 0x0000 0x0000 0x0000 0x0000 0x0000 0x0000 0x0000 0x0000 0x0000 0x0000 0x0000 0x0000 0x0000 0x0000 0x0000 0x0000 0x0000 0x0000 0x0000 0x0000 0x0000 0x0001 0x0004 0x0003 0x0003 0x0000
0x0000 0x0000 0x0000 0x0000 0x0000 0x0000 0x0000 0x0000 0x0000 0x0000 0x0000 0x0000 0x0000 0x0000 0x0000 0x0000 0x0000 0x0000 0x0000 0x0000 0x0000 0x0000 0x0000 0x0000 0x0000 0x0000 0x0001 0x0000
0x0000 0x0000 0x0000 0x0000 0x0000 0x0000 0x0000 0x0000 0x0000 0x0000 0x0000 0x0000 0x0000 0x0000 0x0000 0x0000 0x0000 0x0000 0x0000 0x0000 0x0000 0x0000 0x0000 0x0000 0x0000 0x0000 0x0000 0x0000
0x0000 0x0000 0x0000 0x0000 0x0000 0x0000 0x0000 0x0000 0x0000 0x0000 0x0000 0x0000 0x0000 0x0000 0x0000 0x0000 0x0000 0x0000 0x0000 0x0000 0x0000 0x0000 0x0000 0x0000 0x0000 0x0000 0x0000 0x0000
0x0000 0x0000 0x0000 0x0000 0x0000 0x0000 0x0000 0x0000 0x0000 0x0000 0x0000 0x0000 0x0000 0x0000 0x0000 0x0000 0x0000 0x0000 0x0000 0x0000 0x0000 0x0000 0x0000 0x0000 0x0000 0x0000 0x0000 0x0000
0x0000 0x0000 0x0000 0x0000 0x0000 0x0000 0x0000 0x0000 0x0001 0x0000 0x0000 0x0001 0x0000 0x0000 0x0000 0x0000 0x0000 0x0000 0x0000 0x0000 0x0000 0x0000 0x0001 0x0007 0x0006 0x000B 0x000E 0x0000
0x0000 0x0000 0x0000 0x0000 0x0002 0x0003 0x0007 0x0009 0x0009 0x000B 0x000A 0x0007 0x0003 0x0000 0x0000 0x0000 0x0000 0x0000 0x0000 0x0000 0x0001 0x0006 0x0016 0x002F 0x003F 0x0044 0x0053 0x0000
0x0002 0x0001 0x0000 0x0002 0x0006 0x0009 0x000E 0x0010 0x0016 0x0016 0x0016 0x0011 0x000B 0x0007 0x0001 0x0000 0x0000 0x0000 0x0000 0x0000 0x0003 0x0018 0x0039 0x0056 0x0061 0x0068 0x0069 0x0000
0x0006 0x0004 0x0005 0x0007 0x000B 0x0011 0x001C 0x001F 0x0025 0x0022 0x002E 0x0025 0x001D 0x000F 0x0006 0x0001 0x0000 0x0000 0x0000 0x0004 0x000C 0x003C 0x005B 0x0068 0x0066 0x0065 0x0062 0x0000
0x000D 0x000E 0x000D 0x0011 0x0014 0x0024 0x002E 0x0035 0x003C 0x0041 0x0045 0x003A 0x0037 0x0026 0x0012 0x0004 0x0000 0x0000 0x0001 0x000B 0x002B 0x0063 0x0078 0x0077 0x006F 0x0062 0x0059 0x0000
0x001C 0x0019 0x001F 0x0023 0x002E 0x003A 0x0052 0x0051 0x005E 0x005F 0x005E 0x005D 0x0055 0x003E 0x0028 0x000D 0x0007 0x0003 0x0008 0x002A 0x0055 0x007B 0x0075 0x0062 0x0059 0x0046 0x0041 0x0000
0x002B 0x0033 0x0037 0x0044 0x0049 0x0060 0x006B 0x0070 0x0069 0x0083 0x007C 0x0071 0x0070 0x0073 0x0051 0x0027 0x0016 0x0010 0x0022 0x0074 0x0083 0x0081 0x0076 0x005F 0x005B 0x003F 0x003D 0x0000
0x004C 0x0052 0x0063 0x006E 0x0080 0x008E 0x008D 0x008E 0x0092 0x0090 0x009A 0x0097 0x009E 0x00A3 0x0090 0x0058 0x003B 0x0037 0x006A 0x00AF 0x00A6 0x007A 0x0071 0x0069 0x0051 0x0048 0x0045 0x0000
0x0076 0x008D 0x0090 0x0090 0x009A 0x00A5 0x009C 0x00AD 0x00A1 0x00A7 0x00A8 0x00AB 0x00B6 0x00C5 0x00D0 0x00A2 0x0083 0x0091 0x00CD 0x00DC 0x00B2 0x0081 0x0086 0x0079 0x0065 0x0065 0x0052 0x0000
0x00B7 0x00B6 0x00D0 0x00BC 0x00B7 0x00BB 0x00B3 0x00B2 0x00C2 0x00A8 0x00AC 0x00BC 0x00D2 0x00D7 0x00E9 0x00E4 0x00F3 0x0118 0x0121 0x00F5 0x00DC 0x009E 0x0091 0x008B 0x0080 0x0072 0x0068 0x0000
0x00ED 0x00E6 0x00DA 0x00D3 0x00BD 0x00AA 0x00A8 0x00A2 0x009F 0x009D 0x0094 0x00A8 0x00AC 0x00B8 0x00D8 0x011E 0x015E 0x019A 0x015E 0x0116 0x00E9 0x00BC 0x009F 0x0077 0x007F 0x0075 0x005B 0x0000
0x0114 0x0109 0x00ED 0x00D9 0x00B8 0x009D 0x008A 0x007B 0x0075 0x0070 0x0072 0x007A 0x007F 0x008B 0x00A3 0x012D 0x01D5 0x01E0 0x0185 0x0126 0x00F1 0x00D4 0x008E 0x007C 0x0072 0x0050 0x0050 0x0000
0x0103 0x0121 0x00ED 0x00D1 0x009F 0x006B 0x005C 0x0054 0x0041 0x0047 0x0040 0x0045 0x003C 0x0048 0x007B 0x0143 0x01E1 0x01C5 0x0173 0x010E 0x00D7 0x00BF 0x009B 0x0077 0x0057 0x003D 0x0032 0x0000
0x0120 0x0118 0x00F9 0x00C1 0x0071 0x0049 0x003B 0x002D 0x0023 0x0022 0x001E 0x001B 0x001A 0x002A 0x0072 0x0146 0x018C 0x0156 0x013D 0x00F3 0x00BC 0x00B1 0x009E 0x0081 0x0064 0x0026 0x0025 0x0000
0x00FE 0x0104 0x00F0 0x00CD 0x0079 0x003B 0x0025 0x0017 0x0010 0x000E 0x000D 0x0009 0x000F 0x002D 0x008F 0x012B 0x00D9 0x00C3 0x00D2 0x00C7 0x00C0 0x008E 0x00A6 0x0079 0x0077 0x002C 0x001F 0x0000
0x00FB 0x00DF 0x00D6 0x00C6 0x0099 0x0046 0x002A 0x000F 0x0005 0x0003 0x0002 0x0004 0x0018 0x0057 0x00CC 0x00DD 0x0051 0x004F 0x0081 0x00A4 0x009F 0x008C 0x0083 0x0079 0x0088 0x0040 0x0024 0x0000
0x00A8 0x00BC 0x00C7 0x00CB 0x00C2 0x0072 0x0046 0x001A 0x0003 0x0000 0x0000 0x0007 0x003A 0x0082 0x00F2 0x0077 0x0016 0x0015 0x0035 0x0073 0x0099 0x0086 0x007C 0x0079 0x0083 0x005C 0x002F 0x0000
0x0080 0x0077 0x0097 0x00B0 0x00BA 0x009C 0x0074 0x002E 0x000B 0x0000 0x0000 0x0013 0x005A 0x00CD 0x00E5 0x0034 0x0004 0x0003 0x000F 0x0046 0x006F 0x0092 0x0073 0x0078 0x0080 0x0072 0x0040 0x0000
0x004E 0x0049 0x005F 0x0087 0x00A7 0x00C1 0x0086 0x004A 0x001C 0x0005 0x0005 0x0030 0x009D 0x00DD 0x00AA 0x000F 0x0000 0x0000 0x0004 0x001B 0x0054 0x0079 0x0078 0x0063 0x006E 0x0075 0x005E 0x0000
0x002B 0x0020 0x002D 0x0054 0x0088 0x00B5 0x00A2 0x0074 0x0037 0x000F 0x0010 0x004D 0x00C6 0x00DA 0x0059 0x0003 0x0000 0x0000 0x0000 0x0005 0x0028 0x005B 0x0068 0x006B 0x0063 0x0065 0x0070 0x0000
0x0013 0x000F 0x0017 0x002D 0x0071 0x009C 0x009A 0x00A0 0x0055 0x0025 0x0028 0x007A 0x00DC 0x009C 0x002A 0x0000 0x0000 0x0000 0x0000 0x0001 0x0010 0x002F 0x0062 0x0069 0x0068 0x0057 0x0081 0x0000
0x0006 0x0004 0x000C 0x0015 0x004B 0x007E 0x00AE 0x00B5 0x007A 0x004E 0x004E 0x00A0 0x00B5 0x0061 0x0009 0x0000 0x0000 0x0000 0x0000 0x0000 0x0004 0x0018 0x004A 0x006E 0x006C 0x004F 0x0075 0x0000
0x0002 0x0000 0x0002 0x0007 0x002A 0x005D 0x008B 0x00AE 0x0097 0x008E 0x009B 0x00D6 0x0088 0x0032 0x0003 0x0000 0x0000 0x0000 0x0000 0x0000 0x0000 0x0008 0x0035 0x0054 0x006E 0x0060 0x0072 0x0000
0x0000 0x0000 0x0000 0x0002 0x0010 0x003F 0x006F 0x009A 0x00C7 0x00E1 0x00EF 0x00CE 0x005B 0x000E 0x0000 0x0000 0x0000 0x0000 0x0000 0x0000 0x0000 0x0002 0x0017 0x003A 0x0056 0x0077 0x0080 0x0000
0x0000 0x0000 0x0000 0x0000 0x0003 0x001A 0x003F 0x0087 0x00DB 0x012C 0x012B 0x00C1 0x0033 0x0004 0x0000 0x0000 0x0000 0x0000 0x0000 0x0000 0x0000 0x0000 0x0009 0x0022 0x0044 0x0083 0x0089 0x0000
0x0000 0x0000 0x0000 0x0000 0x0001 0x000D 0x0025 0x0076 0x00FD 0x0143 0x0152 0x0090 0x0018 0x0001 0x0000 0x0000 0x0000 0x0000 0x0000 0x0000 0x0000 0x0000 0x0001 0x0010 0x002F 0x0080 0x00A7 0x0000
0x0000 0x0000 0x0000 0x0000 0x0000 0x0007 0x001D 0x005E 0x0104 0x0151 0x0143 0x009D 0x0014 0x0001 0x0000 0x0000 0x0000 0x0000 0x0000 0x0000 0x0000 0x0000 0x0000 0x000A 0x0028 0x0088 0x00B3 0x0000
0x0000 0x0000 0x0000 0x0000 0x0000 0x000C 0x0028 0x006C 0x00F8 0x0143 0x0135 0x00A0 0x0028 0x0005 0x0000 0x0000 0x0000 0x0000 0x0000 0x0000 0x0000 0x0000 0x0001 0x0011 0x0036 0x0091 0x00B7 0x0000
0x0000 0x0000 0x0000 0x0000 0x0004 0x0017 0x003C 0x0084 0x00DC 0x011C 0x00FA 0x00BE 0x0046 0x000F 0x0000 0x0000 0x0000 0x0000 0x0000 0x0000 0x0000 0x0000 0x0004 0x001A 0x0050 0x008E 0x009E 0x0000
0x0001 0x0000 0x0000 0x0001 0x000C 0x002E 0x006B 0x00B0 0x00C1 0x00CA 0x00C0 0x00C4 0x0086 0x001F 0x0003 0x0000 0x0000 0x0000 0x0000 0x0000 0x0000 0x0000 0x0014 0x003C 0x0063 0x006C 0x0086 0x0000
0x0004 0x0001 0x0001 0x0008 0x0020 0x005C 0x0085 0x00B6 0x00A3 0x0071 0x007E 0x00C5 0x0097 0x0049 0x0007 0x0000 0x0000 0x0000 0x0000 0x0000 0x0000 0x0007 0x002A 0x0059 0x006F 0x0065 0x007B 0x0000
0x000E 0x0009 0x0008 0x0017 0x0049 0x008F 0x00A4 0x00B9 0x0080 0x003D 0x0043 0x00A1 0x00CF 0x0087 0x001A 0x0000 0x0000 0x0000 0x0000 0x0000 0x0003 0x0019 0x0049 0x0072 0x0067 0x0066 0x0074 0x0000
0x0020 0x0018 0x0017 0x0031 0x0072 0x00B6 0x00B2 0x0096 0x004B 0x001A 0x0021 0x0073 0x00C3 0x00BB 0x0042 0x0002 0x0000 0x0000 0x0000 0x0003 0x000F 0x0031 0x006C 0x0077 0x0065 0x006F 0x006D 0x0000
0x0042 0x002C 0x003E 0x005B 0x009A 0x00BA 0x00BB 0x0073 0x002D 0x0009 0x000B 0x003E 0x00C1 0x00E0 0x008A 0x0012 0x0000 0x0000 0x0000 0x000C 0x002A 0x0058 0x0085 0x006B 0x005C 0x0064 0x0063 0x0000
0x0075 0x0052 0x0071 0x0099 0x00B6 0x00B0 0x009E 0x0045 0x0012 0x0003 0x0001 0x0021 0x0077 0x00D0 0x00D3 0x0035 0x0004 0x0001 0x0007 0x002C 0x0055 0x0076 0x0082 0x0071 0x006D 0x006C 0x005A 0x0000
0x00A4 0x008C 0x00A7 0x00CA 0x00C9 0x0095 0x0063 0x0028 0x0005 0x0000 0x0000 0x000C 0x0043 0x00AE 0x0101 0x0080 0x001F 0x000D 0x001D 0x005A 0x0082 0x008F 0x007C 0x006E 0x0071 0x0068 0x0044 0x0000
0x00E5 0x00E2 0x00E5 0x00E3 0x00BC 0x006E 0x0036 0x0017 0x0003 0x0000 0x0000 0x0005 0x001E 0x006A 0x00EA 0x00E4 0x0061 0x0039 0x0067 0x009C 0x00AC 0x0091 0x0078 0x0084 0x007E 0x005F 0x0036 0x0000
0x0109 0x0112 0x00F7 0x00D0 0x0093 0x004C 0x0023 0x000D 0x0006 0x0005 0x0004 0x0006 0x0010 0x0038 0x00A8 0x011F 0x00D1 0x009E 0x00BF 0x00D3 0x00BA 0x0099 0x0087 0x0088 0x006D 0x0040 0x0029 0x0000
0x0133 0x012B 0x0115 0x00C0 0x0073 0x003A 0x002D 0x0019 0x0012 0x0014 0x000E 0x0013 0x0015 0x0021 0x006C 0x0136 0x016E 0x0133 0x0114 0x0100 0x00DA 0x00B6 0x008A 0x008E 0x0067 0x003B 0x003A 0x0000
0x0130 0x0133 0x010B 0x00C8 0x007A 0x0046 0x004A 0x002F 0x002E 0x0032 0x0030 0x0038 0x0031 0x003B 0x0074 0x013B 0x01D7 0x01BD 0x015B 0x011F 0x00F3 0x00CC 0x00A1 0x008D 0x0056 0x003A 0x0041 0x0000
0x0118 0x0122 0x0114 0x00DF 0x00A0 0x0071 0x007D 0x005E 0x0060 0x005B 0x0065 0x006C 0x006E 0x007E 0x00C2 0x0154 0x01F0 0x0200 0x01A2 0x0133 0x0101 0x00EB 0x00A6 0x008D 0x006B 0x0055 0x005F 0x0000
0x00E9 0x0106 0x00F6 0x00F7 0x00BF 0x00B3 0x00A4 0x0091 0x0093 0x0092 0x0099 0x009E 0x00B7 0x00C9 0x00FD 0x0132 0x017A 0x01C4 0x019A 0x0121 0x00F0 0x00CF 0x00B6 0x008C 0x0084 0x006A 0x006C 0x0000
0x00AF 0x00C5 0x00C9 0x00DE 0x00D2 0x00E0 0x00BB 0x00C6 0x00BF 0x00B8 0x00BF 0x00C7 0x00E2 0x00F2 0x0104 0x00ED 0x00F0 0x0136 0x0146 0x0109 0x00C6 0x00BC 0x0098 0x0083 0x0099 0x0085 0x007E 0x0000
0x007D 0x008E 0x0098 0x00B3 0x00C5 0x00CE 0x00B2 0x00CA 0x00B8 0x00C4 0x00BE 0x00BD 0x00E1 0x00E3 0x00C4 0x008B 0x0071 0x0099 0x00C7 0x00DC 0x00C6 0x008C 0x0084 0x006E 0x0085 0x007F 0x0075 0x0000
0x004E 0x005D 0x0066 0x0076 0x009F 0x00A2 0x00A4 0x00B6 0x00AF 0x00B0 0x00AE 0x00AC 0x00AE 0x00AC 0x0081 0x0050 0x0034 0x0038 0x006D 0x00AE 0x00B1 0x008C 0x0065 0x0057 0x005F 0x0065 0x0057 0x0000
0x002E 0x0030 0x003F 0x0045 0x0068 0x006F 0x007E 0x0083 0x0087 0x008E 0x0085 0x0080 0x007A 0x006A 0x0046 0x001D 0x0014 0x000F 0x0032 0x0066 0x0097 0x0092 0x0077 0x0063 0x004E 0x0048 0x0042 0x0000
0x001A 0x001C 0x001E 0x0026 0x0039 0x004F 0x0059 0x005C 0x006F 0x0062 0x0062 0x0066 0x0040 0x0038 0x0020 0x0008 0x0005 0x0003 0x000C 0x002C 0x005D 0x0087 0x0086 0x006D 0x0059 0x004B 0x0053 0x0000
0x000C 0x0009 0x000C 0x0010 0x0021 0x0029 0x0033 0x0038 0x003F 0x003E 0x003F 0x003C 0x0024 0x001A 0x000B 0x0002 0x0001 0x0000 0x0003 0x000E 0x002F 0x0062 0x0086 0x0086 0x0079 0x0060 0x006A 0x0000
0x0004 0x0003 0x0004 0x0009 0x000F 0x0013 0x001A 0x0021 0x0023 0x0020 0x0025 0x001B 0x0010 0x000B 0x0002 0x0000 0x0000 0x0000 0x0000 0x0004 0x0014 0x002F 0x005E 0x0074 0x0080 0x0077 0x0078 0x0000
0x0001 0x0001 0x0001 0x0003 0x0006 0x0008 0x000C 0x0012 0x0010 0x0015 0x0012 0x0009 0x0009 0x0003 0x0000 0x0000 0x0000 0x0000 0x0000 0x0000 0x0003 0x0015 0x0035 0x005D 0x0065 0x006B 0x0064 0x0000
0x0000 0x0000 0x0000 0x0001 0x0001 0x0003 0x0004 0x0006 0x0009 0x0007 0x0008 0x0003 0x0001 0x0000 0x0000 0x0000 0x0000 0x0000 0x0000 0x0000 0x0000 0x0006 0x0016 0x002E 0x0033 0x0046 0x0041 0x0000
0x0000 0x0000 0x0000 0x0000 0x0000 0x0000 0x0002 0x0001 0x0003 0x0003 0x0002 0x0001 0x0000 0x0000 0x0000 0x0000 0x0000 0x0000 0x0000 0x0000 0x0000 0x0000 0x0006 0x000C 0x000E 0x001D 0x001C 0x0000
0x0000 0x0000 0x0000 0x0000 0x0000 0x0000 0x0000 0x0000 0x0000 0x0000 0x0000 0x0000 0x0000 0x0000 0x0000 0x0000 0x0000 0x0000 0x0000 0x0000 0x0000 0x0000 0x0000 0x0000 0x0000 0x0000 0x0000 0x0000
0x0000 0x0000 0x0000 0x0000 0x0000 0x0000 0x0000 0x0000 0x0000 0x0000 0x0000 0x0000 0x0000 0x0000 0x0000 0x0000 0x0000 0x0000 0x0000 0x0000 0x0000 0x0000 0x0000 0x0000 0x0000 0x0001 0x0000 0x0000
0x0000 0x0000 0x0000 0x0000 0x0000 0x0000 0x0000 0x0000 0x0000 0x0000 0x0000 0x0000 0x0000 0x0000 0x0000 0x0000 0x0000 0x0000 0x0000 0x0000 0x0000 0x0000 0x0001 0x0004 0x0007 0x0007 0x000C 0x0000
0x0000 0x0000 0x0000 0x0000 0x0000 0x0000 0x0000 0x0000 0x0000 0x0000 0x0000 0x0000 0x0000 0x0000 0x0000 0x0000 0x0000 0x0000 0x0000 0x0000 0x0000 0x0000 0x0003 0x000D 0x0017 0x0017 0x0018 0x0000
0x0000 0x0000 0x0000 0x0000 0x0000 0x0000 0x0000 0x0000 0x0000 0x0000 0x0000 0x0000 0x0000 0x0000 0x0000 0x0000 0x0000 0x0000 0x0000 0x0000 0x0000 0x0001 0x000F 0x001A 0x0021 0x002B 0x0025 0x0000
0x0000 0x0000 0x0000 0x0000 0x0000 0x0000 0x0002 0x0001 0x0002 0x0001 0x0001 0x0000 0x0000 0x0000 0x0000 0x0000 0x0000 0x0000 0x0000 0x0000 0x0001 0x0009 0x0021 0x0030 0x003B 0x0043 0x0038 0x0000
0x0001 0x0001 0x0001 0x0002 0x0004 0x0003 0x0006 0x0008 0x000B 0x0008 0x0006 0x0004 0x0001 0x0000 0x0000 0x0000 0x0000 0x0000 0x0000 0x0000 0x0006 0x0021 0x0044 0x0049 0x0048 0x0048 0x0042 0x0000
0x0007 0x0006 0x0007 0x000C 0x000E 0x0013 0x0012 0x0017 0x0017 0x001C 0x001A 0x000E 0x000C 0x0006 0x0001 0x0000 0x0000 0x0000 0x0000 0x0005 0x001A 0x003B 0x0049 0x004D 0x004C 0x0048 0x004A 0x0000
0x000F 0x0012 0x0014 0x001F 0x0021 0x0021 0x002F 0x0030 0x0035 0x0038 0x002E 0x0027 0x002B 0x001D 0x0008 0x0001 0x0000 0x0000 0x0004 0x0016 0x0036 0x0056 0x005C 0x005F 0x0045 0x0049 0x0052 0x0000
0x0027 0x002C 0x0037 0x0045 0x0046 0x0054 0x004F 0x005B 0x005F 0x0067 0x005F 0x0059 0x0060 0x004F 0x0024 0x0012 0x0008 0x0008 0x0017 0x0043 0x004F 0x0062 0x005B 0x0060 0x0056 0x005F 0x0057 0x0000
0x0046 0x0050 0x005E 0x006C 0x0075 0x0087 0x0092 0x008E 0x0094 0x0091 0x0090 0x0090 0x008F 0x008A 0x0069 0x0037 0x0024 0x0028 0x004F 0x006E 0x0074 0x0074 0x0079 0x0085 0x007C 0x007D 0x0067 0x0000
0x0078 0x0088 0x008D 0x00A1 0x00B0 0x00C0 0x00B1 0x00B2 0x00B2 0x00BF 0x00B9 0x00B4 0x00B6 0x00AD 0x00AC 0x007E 0x0052 0x0070 0x0096 0x00A8 0x009A 0x0098 0x009C 0x008F 0x00A4 0x0095 0x0077 0x0000
0x00B0 0x00B5 0x00B0 0x00CC 0x00D0 0x00D4 0x00DF 0x00DB 0x00D8 0x00D1 0x00D1 0x00DB 0x00C2 0x00C5 0x00C9 0x00BA 0x00B5 0x00D6 0x00ED 0x00DE 0x00E8 0x00CB 0x00A9 0x00A1 0x00A8 0x008B 0x008E 0x0000
0x00F1 0x0102 0x00DE 0x00E4 0x00EC 0x00DF 0x00DC 0x00ED 0x00DA 0x00E1 0x00D6 0x00E4 0x00E2 0x00E3 0x00D9 0x00FD 0x0131 0x015A 0x0138 0x011C 0x00F6 0x00E6 0x00B8 0x0090 0x00A1 0x007F 0x0088 0x0000
0x0141 0x013A 0x011C 0x00EE 0x00DF 0x00CE 0x00D1 0x00DA 0x00D1 0x00C0 0x00CF 0x00DE 0x00DB 0x00F1 0x00F8 0x015A 0x01AA 0x01A2 0x018F 0x0138 0x010C 0x00DA 0x009E 0x0099 0x0080 0x0071 0x0071 0x0000
0x015E 0x0173 0x0134 0x00DD 0x00B9 0x009A 0x0090 0x0089 0x0085 0x0086 0x0090 0x0090 0x00A5 0x00BB 0x010E 0x01A5 0x01F9 0x01D0 0x0191 0x0130 0x00E9 0x00A6 0x009A 0x0081 0x0069 0x0067 0x0054 0x0000
0x0172 0x0152 0x0127 0x00D5 0x0081 0x005C 0x004B 0x0037 0x0044 0x003B 0x0048 0x0047 0x0053 0x0074 0x0118 0x01CB 0x01E4 0x01AB 0x0173 0x0124 0x00D8 0x009B 0x007F 0x006E 0x0056 0x005D 0x0039 0x0000
0x015B 0x0130 0x010C 0x00CE 0x0065 0x0038 0x001E 0x000C 0x000E 0x0011 0x0010 0x0011 0x0029 0x005C 0x0142 0x018E 0x0182 0x0165 0x0126 0x011D 0x00E3 0x009D 0x0080 0x0054 0x0056 0x0046 0x002B 0x0000
0x011A 0x00F1 0x00FD 0x00E1 0x0088 0x0043 0x001C 0x0005 0x0002 0x0003 0x0002 0x000F 0x003F 0x00A9 0x015E 0x011D 0x00DC 0x00E3 0x00F0 0x00F9 0x00E6 0x00BD 0x0082 0x0068 0x0049 0x0036 0x0021 0x0000
0x00CC 0x00CB 0x00F5 0x00F4 0x00C1 0x0065 0x002F 0x000B 0x0000 0x0000 0x0001 0x0021 0x0097 0x00F8 0x012D 0x0095 0x005C 0x0068 0x0096 0x00C9 0x00FA 0x00C6 0x00A0 0x0080 0x0056 0x0035 0x0022 0x0000
0x006B 0x008B 0x00B9 0x00D8 0x00E9 0x00A1 0x005D 0x001C 0x0002 0x0000 0x0005 0x0060 0x00DE 0x013B 0x00A4 0x002D 0x0016 0x001D 0x0045 0x007C 0x00C0 0x00C2 0x00AA 0x0099 0x0065 0x0046 0x0026 0x0000
0x0042 0x004D 0x0076 0x00AF 0x00F5 0x00DC 0x0098 0x003A 0x000C 0x0002 0x0017 0x00A8 0x0112 0x0102 0x003B 0x0007 0x0001 0x0004 0x0010 0x0049 0x0081 0x00B2 0x00AE 0x00AB 0x0080 0x0063 0x0042 0x0000
0x0017 0x001E 0x0035 0x006A 0x00C7 0x00FC 0x00D1 0x006F 0x001D 0x000B 0x0041 0x0104 0x0109 0x00B2 0x000B 0x0000 0x0000 0x0000 0x0003 0x0017 0x003C 0x0089 0x009D 0x00BC 0x008F 0x0079 0x005F 0x0000
0x0005 0x0005 0x0011 0x003E 0x008D 0x00E3 0x00F6 0x00A5 0x0041 0x002F 0x007E 0x0117 0x00C5 0x0043 0x0001 0x0000 0x0000 0x0000 0x0000 0x0005 0x0013 0x005E 0x0089 0x00A6 0x0093 0x008C 0x0096 0x0000
0x0001 0x0000 0x0004 0x0013 0x0041 0x00A0 0x00E3 0x00DA 0x007B 0x007F 0x00D0 0x00F3 0x0079 0x0019 0x0000 0x0000 0x0000 0x0000 0x0000 0x0000 0x0006 0x002E 0x0067 0x0086 0x00A3 0x00A1 0x00BE 0x0000
0x0000 0x0000 0x0000 0x0004 0x001A 0x005B 0x00B0 0x00F3 0x00E2 0x00E3 0x010E 0x0098 0x0024 0x0003 0x0000 0x0000 0x0000 0x0000 0x0000 0x0000 0x0001 0x0011 0x0047 0x006D 0x0095 0x00B2 0x00EE 0x0000
0x0000 0x0000 0x0000 0x0000 0x0008 0x0027 0x006B 0x00FE 0x0149 0x016D 0x0137 0x0050 0x000C 0x0000 0x0000 0x0000 0x0000 0x0000 0x0000 0x0000 0x0000 0x0005 0x0028 0x0055 0x00A4 0x00DE 0x00F5 0x0000
0x0000 0x0000 0x0000 0x0000 0x0002 0x000E 0x0042 0x00E5 0x01A8 0x01CF 0x012B 0x002A 0x0001 0x0000 0x0000 0x0000 0x0000 0x0000 0x0000 0x0000 0x0000 0x0000 0x0019 0x0043 0x0099 0x00F2 0x00FD 0x0000
0x0000 0x0000 0x0000 0x0000 0x0001 0x000B 0x003A 0x00E5 0x01D2 0x01EF 0x012C 0x0027 0x0001 0x0000 0x0000 0x0000 0x0000 0x0000 0x0000 0x0000 0x0000 0x0000 0x000E 0x0037 0x009E 0x00F6 0x00FF 0x0000
0x0000 0x0000 0x0000 0x0000 0x0003 0x001E 0x0048 0x00EF 0x01A8 0x01AD 0x0118 0x0047 0x0006 0x0000 0x0000 0x0000 0x0000 0x0000 0x0000 0x0000 0x0000 0x0001 0x0014 0x0045 0x0098 0x00E2 0x010A 0x0000
0x0000 0x0000 0x0000 0x0001 0x0014 0x0047 0x0094 0x010D 0x0142 0x0132 0x0119 0x0085 0x001C 0x0003 0x0000 0x0000 0x0000 0x0000 0x0000 0x0000 0x0000 0x0006 0x0029 0x006C 0x009B 0x00CB 0x00F0 0x0000
0x0000 0x0000 0x0002 0x000A 0x0040 0x0086 0x00DA 0x00EB 0x00B9 0x00B5 0x00F4 0x00D7 0x0050 0x000D 0x0000 0x0000 0x0000 0x0000 0x0000 0x0000 0x0001 0x001A 0x0057 0x0089 0x00A3 0x00CD 0x00CD 0x0000
0x0002 0x0004 0x000C 0x0023 0x006D 0x00CE 0x0102 0x00BF 0x005B 0x004B 0x00B7 0x0113 0x00AD 0x0036 0x0001 0x0000 0x0000 0x0000 0x0000 0x0000 0x0009 0x003B 0x0081 0x0090 0x008F 0x00B0 0x008C 0x0000
0x000C 0x0011 0x002A 0x0064 0x00A5 0x00F5 0x00E6 0x0078 0x0024 0x0013 0x0068 0x0112 0x00F3 0x0083 0x0007 0x0000 0x0000 0x0000 0x0000 0x0006 0x0016 0x006A 0x009A 0x0090 0x0094 0x00A2 0x0069 0x0000
0x0020 0x003B 0x0067 0x00A2 0x00D9 0x00F2 0x00AF 0x0051 0x000B 0x0004 0x0024 0x00CD 0x0130 0x00F7 0x0025 0x0001 0x0000 0x0000 0x0005 0x001F 0x0044 0x0096 0x00A0 0x008E 0x008B 0x007D 0x0048 0x0000
0x0055 0x0073 0x0093 0x00EE 0x00F6 0x00B4 0x0074 0x0026 0x0006 0x0000 0x000C 0x006E 0x0101 0x0124 0x007E 0x0011 0x0003 0x0006 0x001B 0x0044 0x0077 0x00C1 0x0099 0x00A2 0x0092 0x0055 0x003C 0x0000
0x0099 0x00BB 0x00D5 0x00F4 0x00E6 0x0079 0x0041 0x0014 0x0001 0x0000 0x0001 0x002B 0x00B4 0x011F 0x0115 0x0057 0x0018 0x0022 0x0058 0x0091 0x00B7 0x00BA 0x00A6 0x0099 0x0075 0x0036 0x002B 0x0000
0x00E1 0x00E9 0x00EE 0x00E1 0x009C 0x003F 0x001E 0x0005 0x0000 0x0000 0x0000 0x000C 0x0048 0x00BA 0x0169 0x00CB 0x005C 0x0071 0x00B3 0x00C6 0x00D2 0x00AC 0x009D 0x0094 0x0050 0x001A 0x0023 0x0000
0x0128 0x011D 0x0108 0x00A0 0x0060 0x002A 0x0011 0x0003 0x0001 0x0001 0x0001 0x0003 0x0017 0x006D 0x0136 0x014C 0x00E6 0x00DC 0x0101 0x00F8 0x00F0 0x00A5 0x008C 0x0069 0x0046 0x001B 0x0020 0x0000
0x0164 0x0126 0x00F7 0x008C 0x0043 0x0026 0x0018 0x000B 0x000C 0x000A 0x0007 0x0008 0x000F 0x0030 0x00CA 0x0189 0x0184 0x0171 0x013A 0x0101 0x00DC 0x00AB 0x0079 0x0051 0x0053 0x002A 0x0039 0x0000
0x017B 0x014B 0x0101 0x009C 0x0068 0x0058 0x003D 0x0031 0x002E 0x002C 0x0023 0x0028 0x0035 0x0056 0x00AA 0x01A9 0x01FB 0x01CC 0x016C 0x0121 0x00EB 0x00A7 0x0083 0x004E 0x0069 0x0047 0x0046 0x0000
0x0156 0x0132 0x0106 0x00E3 0x00A1 0x0097 0x0084 0x006B 0x0066 0x0062 0x0064 0x0074 0x0088 0x0095 0x00E0 0x0182 0x0200 0x01F0 0x017E 0x012C 0x00E9 0x009E 0x0096 0x0078 0x007C 0x007C 0x0071 0x0000
0x010D 0x012F 0x0109 0x0101 0x00E4 0x00D0 0x00C2 0x00B4 0x00B3 0x00B0 0x00B4 0x00C9 0x00E3 0x00D7 0x0115 0x0141 0x018D 0x0196 0x0162 0x0127 0x00FC 0x00B3 0x009D 0x009A 0x0088 0x008A 0x007C 0x0000
0x00D0 0x00DB 0x00D8 0x00F6 0x00F9 0x00D2 0x00E5 0x00C8 0x00D2 0x00D4 0x00DE 0x00E7 0x00F4 0x00EB 0x0104 0x00F1 0x0107 0x012E 0x010F 0x0101 0x00E9 0x00C2 0x00A2 0x009A 0x009C 0x0098 0x0086 0x0000
0x0093 0x00A2 0x00AE 0x00B5 0x00CD 0x00C6 0x00CE 0x00D5 0x00D4 0x00D9 0x00D8 0x00E1 0x00E2 0x00DD 0x00CA 0x00A1 0x0099 0x00B7 0x00CF 0x00D0 0x00C1 0x00B8 0x00A0 0x009C 0x008F 0x0091 0x007D 0x0000
0x0066 0x0060 0x0079 0x007E 0x0098 0x00A6 0x00AF 0x00B1 0x00A2 0x00A1 0x00AC 0x00A5 0x00A2 0x00BA 0x0086 0x006D 0x0066 0x0068 0x0096 0x00A7 0x009B 0x00A1 0x0099 0x0087 0x0086 0x0087 0x0083 0x0000
0x003D 0x0040 0x005A 0x005F 0x005B 0x0084 0x007A 0x0099 0x0084 0x008E 0x0090 0x0088 0x007D 0x007F 0x0053 0x002C 0x0036 0x0028 0x005F 0x0079 0x0079 0x0084 0x0083 0x008A 0x007F 0x0083 0x0084 0x0000
0x0026 0x0027 0x0037 0x0043 0x004E 0x0051 0x0057 0x0065 0x0061 0x0062 0x0068 0x005C 0x0053 0x0052 0x0034 0x0014 0x0014 0x000B 0x002B 0x0056 0x0064 0x0068 0x0074 0x007B 0x007F 0x0067 0x0071 0x0000
0x0017 0x0013 0x001C 0x002D 0x002F 0x0037 0x0037 0x0049 0x004B 0x0059 0x0051 0x0048 0x0037 0x002A 0x0013 0x0007 0x0005 0x0003 0x000A 0x002D 0x004D 0x004F 0x0061 0x006A 0x006D 0x0062 0x005A 0x0000
0x000B 0x0009 0x0009 0x0015 0x001E 0x001E 0x0028 0x002F 0x003D 0x0031 0x0032 0x002F 0x0022 0x0015 0x0005 0x0001 0x0000 0x0000 0x0002 0x0013 0x002D 0x003F 0x004D 0x0056 0x0053 0x004B 0x0053 0x0000
0x0005 0x0004 0x0003 0x0007 0x0010 0x0019 0x001A 0x0021 0x002A 0x0029 0x0023 0x0016 0x000C 0x0008 0x0001 0x0000 0x0000 0x0000 0x0000 0x0004 0x0015 0x0031 0x003D 0x0040 0x0039 0x0046 0x0045 0x0000
0x0001 0x0000 0x0001 0x0002 0x0005 0x0009 0x000D 0x0010 0x001D 0x0015 0x0011 0x000B 0x0005 0x0002 0x0000 0x0000 0x0000 0x0000 0x0000 0x0000 0x0006 0x001D 0x002B 0x0034 0x0030 0x003C 0x0038 0x0000
0x0000 0x0000 0x0000 0x0000 0x0002 0x0005 0x0005 0x0007 0x0007 0x0009 0x0006 0x0003 0x0002 0x0000 0x0000 0x0000 0x0000 0x0000 0x0000 0x0000 0x0001 0x000E 0x001D 0x001F 0x0027 0x002A 0x0023 0x0000
0x0000 0x0000 0x0000 0x0000 0x0000 0x0001 0x0002 0x0002 0x0002 0x0002 0x0001 0x0001 0x0000 0x0000 0x0000 0x0000 0x0000 0x0000 0x0000 0x0000 0x0000 0x0004 0x000E 0x000C 0x0018 0x0016 0x0018 0x0000
0x0000 0x0000 0x0000 0x0000 0x0000 0x0000 0x0000 0x0000 0x0000 0x0000 0x0000 0x0000 0x0000 0x0000 0x0000 0x0000 0x0000 0x0000 0x0000 0x0000 0x0000 0x0000 0x0006 0x0004 0x0009 0x0007 0x000A 0x0000
0x0000 0x0000 0x0000 0x0000 0x0000 0x0000 0x0000 0x0000 0x0000 0x0000 0x0000 0x0000 0x0000 0x0000 0x0000 0x0000 0x0000 0x0000 0x0000 0x0000 0x0000 0x0000 0x0000 0x0000 0x0000 0x0000 0x0000 0x0000
0x0000 0x0000 0x0000 0x0000 0x0000 0x0000 0x0000 0x0000 0x0000 0x0000 0x0000 0x0000 0x0000 0x0000 0x0000 0x0000 0x0000 0x0000 0x0000 0x0000 0x0000 0x0000 0x0000 0x0000 0x0000 0x0000 0x0000 0x0000
0x0000 0x0000 0x0000 0x0000 0x0000 0x0000 0x0000 0x0000 0x0000 0x0000 0x0000 0x0000 0x0000 0x0000 0x0000 0x0000 0x0000 0x0000 0x0000 0x0000 0x0000 0x0000 0x0000 0x0000 0x0000 0x0000 0x0000 0x0000
0x0000 0x0000 0x0000 0x0000 0x0000 0x0000 0x0000 0x0000 0x0000 0x0000 0x0000 0x0000 0x0000 0x0000 0x0000 0x0000 0x0000 0x0000 0x0000 0x0000 0x0000 0x0000 0x0000 0x0000 0x0000 0x0000 0x0000 0x0000
0x0000 0x0000 0x0000 0x0000 0x0000 0x0000 0x0000 0x0000 0x0000 0x0000 0x0000 0x0000 0x0000 0x0000 0x0000 0x0000 0x0000 0x0000 0x0000 0x0000 0x0000 0x0000 0x0000 0x0000 0x0000 0x0000 0x0001 0x0000
0x0000 0x0000 0x0000 0x0000 0x0000 0x0000 0x0000 0x0000 0x0000 0x0000 0x0000 0x0000 0x0000 0x0000 0x0000 0x0000 0x0000 0x0000 0x0000 0x0000 0x0000 0x0000 0x0000 0x0000 0x0001 0x0001 0x0003 0x0000
0x0000 0x0000 0x0000 0x0000 0x0000 0x0000 0x0000 0x0000 0x0000 0x0000 0x0000 0x0000 0x0000 0x0000 0x0000 0x0000 0x0000 0x0000 0x0000 0x0000 0x0000 0x0000 0x0000 0x0002 0x0004 0x0005 0x0008 0x0000
0x0000 0x0000 0x0000 0x0000 0x0000 0x0000 0x0000 0x0000 0x0000 0x0000 0x0000 0x0000 0x0000 0x0000 0x0000 0x0000 0x0000 0x0000 0x0000 0x0000 0x0000 0x0001 0x0003 0x0008 0x000E 0x000F 0x0012 0x0000
0x0000 0x0000 0x0000 0x0000 0x0000 0x0000 0x0000 0x0001 0x0002 0x0000 0x0000 0x0000 0x0000 0x0000 0x0000 0x0000 0x0000 0x0000 0x0000 0x0000 0x0001 0x0004 0x000C 0x001D 0x001D 0x0021 0x0027 0x0000
0x0000 0x0000 0x0000 0x0000 0x0001 0x0001 0x0003 0x0005 0x0007 0x0005 0x0004 0x0002 0x0000 0x0000 0x0000 0x0000 0x0000 0x0000 0x0000 0x0001 0x0005 0x0011 0x001E 0x0036 0x003B 0x0038 0x003D 0x0000
0x0000 0x0000 0x0001 0x0003 0x0005 0x000B 0x000F 0x0011 0x0012 0x0016 0x000F 0x000C 0x0003 0x0000 0x0000 0x0000 0x0000 0x0000 0x0000 0x0005 0x0011 0x0027 0x0041 0x005F 0x0063 0x005E 0x0061 0x0000
0x0003 0x0003 0x0006 0x000E 0x0017 0x001C 0x0022 0x0029 0x002E 0x0039 0x0029 0x0024 0x000D 0x0005 0x0001 0x0000 0x0000 0x0000 0x0002 0x0013 0x0031 0x0046 0x0066 0x0079 0x0077 0x0076 0x006C 0x0000
0x000E 0x000F 0x0012 0x0027 0x0035 0x0042 0x004E 0x004F 0x0057 0x0060 0x0057 0x0047 0x002C 0x001B 0x000F 0x0005 0x0004 0x0002 0x0010 0x003B 0x005B 0x0071 0x0082 0x0082 0x007D 0x007F 0x0078 0x0000
0x002D 0x0033 0x0039 0x0057 0x005E 0x0079 0x0079 0x0081 0x0087 0x008E 0x008C 0x0080 0x0062 0x0044 0x002C 0x0016 0x0013 0x0014 0x003A 0x006A 0x0096 0x0092 0x008A 0x0078 0x006B 0x0070 0x0065 0x0000
0x0056 0x0066 0x006E 0x0084 0x0099 0x00B8 0x00AF 0x00A5 0x00BB 0x00A2 0x00B7 0x00BF 0x00B8 0x008D 0x006F 0x0046 0x003E 0x0049 0x007B 0x00AA 0x00A7 0x00A1 0x008C 0x006E 0x0068 0x0065 0x005E 0x0000
0x0094 0x00B3 0x00C8 0x00D1 0x00D0 0x00D2 0x00DA 0x00CB 0x00DB 0x00C1 0x00D4 0x00EB 0x00F1 0x00D9 0x00C9 0x0096 0x0096 0x00B6 0x00E7 0x00D2 0x00C3 0x00A3 0x0095 0x007A 0x0070 0x0067 0x0069 0x0000
0x00CF 0x00FB 0x0106 0x00F5 0x00EF 0x00DC 0x00D6 0x00CA 0x00D3 0x00BF 0x00CE 0x00E6 0x0103 0x010E 0x0116 0x0113 0x011D 0x0138 0x0124 0x0104 0x00B2 0x00AD 0x0092 0x008C 0x0077 0x006F 0x0073 0x0000
0x011A 0x012B 0x010E 0x00FE 0x00D5 0x00B0 0x00B2 0x00BA 0x009E 0x00B2 0x00AC 0x00AE 0x00C5 0x00F2 0x0119 0x0156 0x01A4 0x01A3 0x0160 0x0106 0x00E6 0x00AB 0x0089 0x0094 0x007D 0x0071 0x007D 0x0000
0x0151 0x0142 0x00E3 0x00B8 0x0096 0x0081 0x006A 0x0076 0x005C 0x0071 0x0068 0x0064 0x007A 0x00AA 0x00E8 0x0193 0x0200 0x01D3 0x015B 0x010B 0x00E7 0x00AE 0x0089 0x0083 0x0067 0x005C 0x0064 0x0000
0x0176 0x0138 0x00BC 0x008B 0x0058 0x0040 0x003C 0x003D 0x002D 0x0036 0x002F 0x0027 0x0037 0x0064 0x00B7 0x017D 0x01CD 0x01A2 0x0163 0x00F7 0x00F1 0x009D 0x0089 0x0075 0x0055 0x0041 0x0052 0x0000
0x0152 0x0125 0x00E0 0x009A 0x003F 0x0029 0x0019 0x0010 0x0010 0x000B 0x000D 0x0009 0x0023 0x005F 0x00E9 0x0165 0x0141 0x0139 0x011C 0x00F4 0x00C3 0x00B3 0x009D 0x005A 0x0043 0x0031 0x0033 0x0000
0x0112 0x00FF 0x00F5 0x00CD 0x0064 0x0034 0x0013 0x0006 0x0003 0x0002 0x0002 0x0007 0x0036 0x009E 0x0121 0x00FE 0x0099 0x00A7 0x00D5 0x00D4 0x00AC 0x00A2 0x008F 0x006C 0x0053 0x002F 0x002A 0x0000
0x00B0 0x00BF 0x0102 0x0103 0x00A6 0x0060 0x002A 0x000B 0x0000 0x0000 0x0001 0x0018 0x0074 0x00E2 0x0119 0x008C 0x0038 0x0047 0x0071 0x00B1 0x009A 0x00AA 0x009C 0x007C 0x006B 0x003E 0x0022 0x0000
0x0069 0x0079 0x00C1 0x00E0 0x00DB 0x0091 0x0062 0x0019 0x0002 0x0000 0x0005 0x003C 0x00C6 0x0109 0x00B8 0x0033 0x0012 0x000E 0x003B 0x0076 0x0089 0x009F 0x008D 0x0089 0x007D 0x0049 0x0031 0x0000
0x002E 0x0031 0x007E 0x00A5 0x00E5 0x00BC 0x0080 0x0040 0x0008 0x0003 0x0011 0x0081 0x00F6 0x00E4 0x0053 0x0009 0x0003 0x0002 0x000D 0x0045 0x0071 0x008C 0x0090 0x0079 0x0077 0x005D 0x0031 0x0000
0x0010 0x0010 0x0036 0x0054 0x00C0 0x00D3 0x00B3 0x0077 0x0022 0x0010 0x0035 0x00BF 0x00F3 0x0094 0x0023 0x0002 0x0000 0x0000 0x0002 0x0019 0x004C 0x0073 0x0082 0x0066 0x006B 0x0072 0x0054 0x0000
0x0005 0x0003 0x0010 0x002A 0x0089 0x00C3 0x00C0 0x00A3 0x003C 0x0030 0x0062 0x00E4 0x00AF 0x0047 0x000A 0x0000 0x0000 0x0000 0x0000 0x0007 0x0026 0x0045 0x0075 0x006F 0x0061 0x0080 0x0083 0x0000
0x0001 0x0000 0x0004 0x0011 0x004B 0x0099 0x00C6 0x00C0 0x007E 0x0073 0x00A3 0x00D3 0x006C 0x0014 0x0001 0x0000 0x0000 0x0000 0x0000 0x0001 0x000B 0x0030 0x0064 0x0079 0x006E 0x0083 0x00B9 0x0000
0x0000 0x0000 0x0000 0x0002 0x0021 0x005C 0x00A3 0x00BA 0x00C5 0x00C3 0x00CE 0x00A6 0x002E 0x0007 0x0000 0x0000 0x0000 0x0000 0x0000 0x0000 0x0002 0x0010 0x0041 0x0066 0x0082 0x0088 0x00D1 0x0000
0x0000 0x0000 0x0000 0x0000 0x000A 0x0032 0x006F 0x00B9 0x0112 0x0125 0x00FE 0x0072 0x0011 0x0001 0x0000 0x0000 0x0000 0x0000 0x0000 0x0000 0x0000 0x0006 0x002B 0x0056 0x008E 0x00A2 0x00DC 0x0000
0x0000 0x0000 0x0000 0x0000 0x0003 0x0014 0x004A 0x00A7 0x014D 0x0167 0x0113 0x0048 0x0004 0x0000 0x0000 0x0000 0x0000 0x0000 0x0000 0x0000 0x0000 0x0001 0x0012 0x0040 0x008C 0x00C2 0x00DC 0x0000
0x0000 0x0000 0x0000 0x0000 0x0001 0x000A 0x002D 0x00AF 0x0152 0x018A 0x0125 0x0038 0x0001 0x0000 0x0000 0x0000 0x0000 0x0000 0x0000 0x0000 0x0000 0x0000 0x000E 0x0044 0x007C 0x00CE 0x00E4 0x0000
0x0000 0x0000 0x0000 0x0000 0x0001 0x0014 0x0038 0x00AA 0x014D 0x0166 0x011D 0x0040 0x0003 0x0000 0x0000 0x0000 0x0000 0x0000 0x0000 0x0000 0x0000 0x0002 0x0017 0x003D 0x007B 0x00CA 0x00E1 0x0000
0x0000 0x0000 0x0000 0x0001 0x0007 0x002B 0x0060 0x00BF 0x0115 0x0125 0x00FE 0x006F 0x0014 0x0000 0x0000 0x0000 0x0000 0x0000 0x0000 0x0000 0x0000 0x0007 0x002B 0x0054 0x007F 0x00B6 0x00D6 0x0000
0x0000 0x0000 0x0000 0x0003 0x001A 0x005B 0x0080 0x00B8 0x00D7 0x00C9 0x00CF 0x0099 0x0038 0x0006 0x0000 0x0000 0x0000 0x0000 0x0000 0x0000 0x0002 0x0016 0x0049 0x0069 0x0081 0x009E 0x00BE 0x0000
0x0000 0x0000 0x0004 0x000F 0x0040 0x0086 0x00AF 0x00C0 0x008B 0x0076 0x00A1 0x00C7 0x006B 0x0016 0x0000 0x0000 0x0000 0x0000 0x0000 0x0002 0x0009 0x0023 0x0057 0x007B 0x007C 0x0082 0x0099 0x0000
0x0004 0x0005 0x000C 0x002B 0x0066 0x00B3 0x00C3 0x00A3 0x0048 0x0033 0x0066 0x00CF 0x00AE 0x0046 0x0005 0x0000 0x0000 0x0000 0x0001 0x000B 0x001B 0x004F 0x006F 0x0074 0x006E 0x007A 0x0089 0x0000
0x0011 0x0011 0x0024 0x0059 0x00A3 0x00CC 0x00C7 0x007F 0x0023 0x000F 0x003A 0x00C7 0x00F2 0x008C 0x0014 0x0001 0x0000 0x0000 0x0005 0x001E 0x0036 0x0068 0x0070 0x006F 0x006B 0x006E 0x0066 0x0000
0x002F 0x002D 0x0057 0x00A0 0x00D1 0x00BD 0x009D 0x0050 0x000C 0x0004 0x0011 0x008F 0x00F8 0x00D9 0x0039 0x0008 0x0002 0x0003 0x0010 0x0039 0x0072 0x008E 0x0087 0x007A 0x0071 0x0061 0x0050 0x0000
0x0051 0x0072 0x00B4 0x00D4 0x00D5 0x00A1 0x0067 0x0027 0x0003 0x0000 0x0008 0x0052 0x00BD 0x0102 0x008A 0x0027 0x000F 0x0011 0x0035 0x0068 0x0092 0x0089 0x0080 0x0070 0x0075 0x0053 0x0039 0x0000
0x0099 0x00CE 0x00F5 0x00E9 0x00B2 0x0065 0x003C 0x0012 0x0000 0x0000 0x0001 0x001E 0x0069 0x00E4 0x00FE 0x0079 0x0037 0x003D 0x0069 0x0091 0x00B3 0x0097 0x007D 0x0074 0x0060 0x003D 0x002D 0x0000
0x00EA 0x010E 0x00F8 0x00C6 0x0078 0x0043 0x001B 0x0006 0x0000 0x0000 0x0000 0x000C 0x0034 0x00A3 0x0120 0x00E2 0x00A7 0x008F 0x00BF 0x00C5 0x009F 0x0089 0x0072 0x005E 0x0048 0x0027 0x0020 0x0000
0x0143 0x011D 0x00CD 0x009D 0x005A 0x0021 0x000E 0x0008 0x0006 0x0004 0x0007 0x0007 0x0024 0x005D 0x0105 0x0144 0x013C 0x0113 0x0103 0x00D1 0x00B0 0x009D 0x007E 0x0074 0x0036 0x0028 0x0022 0x0000
0x0173 0x0112 0x00A6 0x007E 0x0049 0x002D 0x001E 0x001D 0x0017 0x0015 0x0017 0x001A 0x0031 0x0053 0x00C8 0x017B 0x01BB 0x01A7 0x0133 0x00FC 0x00BC 0x00A5 0x0088 0x0067 0x0053 0x0037 0x0032 0x0000
0x0160 0x0113 0x00B9 0x0099 0x0068 0x005B 0x0047 0x0050 0x004A 0x0048 0x0044 0x0051 0x006E 0x008B 0x00E8 0x0198 0x01EA 0x01E6 0x0164 0x0110 0x00EB 0x00BE 0x0086 0x0069 0x005F 0x0061 0x0055 0x0000
0x0135 0x0119 0x00EA 0x00D4 0x009F 0x0097 0x008D 0x0095 0x0082 0x0086 0x0083 0x0098 0x00B8 0x00DC 0x010E 0x0172 0x01AC 0x01C4 0x015E 0x011A 0x00EC 0x00B1 0x008D 0x006F 0x0076 0x006D 0x006D 0x0000
0x00E5 0x0105 0x0108 0x00EF 0x00D4 0x00CA 0x00AE 0x00BB 0x00AB 0x00B7 0x00BB 0x00CF 0x00E8 0x00FE 0x0117 0x0122 0x0131 0x013A 0x0144 0x0103 0x00DE 0x00A6 0x0087 0x0078 0x0075 0x0078 0x007F 0x0000
0x00A3 0x00C9 0x00F4 0x00E4 0x00E0 0x00CB 0x00C2 0x00CA 0x00B4 0x00B9 0x00D9 0x00CE 0x00E4 0x00E4 0x00DD 0x00AA 0x009F 0x00B9 0x00EB 0x00DE 0x00B7 0x0099 0x0089 0x008C 0x007E 0x006B 0x0080 0x0000
0x005D 0x007D 0x00AB 0x00AB 0x00C8 0x00BB 0x00A5 0x00A5 0x00B8 0x00AF 0x00C6 0x00C2 0x00B9 0x00A0 0x008D 0x0056 0x003E 0x004D 0x0097 0x00BA 0x009F 0x0094 0x007D 0x0078 0x006D 0x0062 0x007F 0x0000
0x0030 0x003D 0x0067 0x0079 0x0092 0x0091 0x00A3 0x0095 0x00B1 0x00A2 0x00A8 0x009A 0x007E 0x0069 0x0042 0x001D 0x0012 0x0018 0x004D 0x007D 0x008E 0x0090 0x0079 0x0076 0x0068 0x0060 0x0071 0x0000
0x0017 0x001D 0x0032 0x003F 0x0059 0x006B 0x0081 0x0071 0x008C 0x0089 0x0072 0x0075 0x0045 0x0032 0x0017 0x0009 0x0003 0x0004 0x0015 0x0042 0x006C 0x0082 0x0078 0x006E 0x0066 0x0064 0x0068 0x0000
0x0009 0x000B 0x0012 0x0019 0x002E 0x003D 0x005E 0x0056 0x0055 0x005E 0x0047 0x0039 0x001F 0x0011 0x0005 0x0001 0x0000 0x0000 0x0006 0x001B 0x0047 0x0067 0x0070 0x006D 0x0074 0x006C 0x006D 0x0000
0x0001 0x0001 0x0005 0x0009 0x0016 0x0019 0x002D 0x002B 0x0025 0x002B 0x001F 0x0017 0x0008 0x0003 0x0001 0x0000 0x0000 0x0000 0x0000 0x0009 0x0020 0x0041 0x0060 0x006C 0x0066 0x006A 0x0069 0x0000
0x0000 0x0000 0x0001 0x0002 0x0007 0x0009 0x000E 0x000E 0x000F 0x000F 0x000A 0x0005 0x0001 0x0000 0x0000 0x0000 0x0000 0x0000 0x0000 0x0003 0x000B 0x001E 0x0041 0x0051 0x0057 0x005E 0x0061 0x0000
0x0000 0x0000 0x0000 0x0000 0x0001 0x0002 0x0004 0x0003 0x0003 0x0002 0x0002 0x0000 0x0000 0x0000 0x0000 0x0000 0x0000 0x0000 0x0000 0x0000 0x0002 0x000B 0x0020 0x003B 0x0039 0x0044 0x003C 0x0000
0x0000 0x0000 0x0000 0x0000 0x0000 0x0000 0x0000 0x0000 0x0000 0x0000 0x0000 0x0000 0x0000 0x0000 0x0000 0x0000 0x0000 0x0000 0x0000 0x0000 0x0000 0x0002 0x000E 0x001A 0x0026 0x002C 0x0027 0x0000
0x0000 0x0000 0x0000 0x0000 0x0000 0x0000 0x0000 0x0000 0x0000 0x0000 0x0000 0x0000 0x0000 0x0000 0x0000 0x0000 0x0000 0x0000 0x0000 0x0000 0x0000 0x0000 0x0004 0x000C 0x0010 0x0015 0x0010 0x0000
0x0000 0x0000 0x0000 0x0000 0x0000 0x0000 0x0000 0x0000 0x0000 0x0000 0x0000 0x0000 0x0000 0x0000 0x0000 0x0000 0x0000 0x0000 0x0000 0x0000 0x0000 0x0000 0x0000 0x0002 0x0005 0x0008 0x0005 0x0000
0x0000 0x0000 0x0000 0x0000 0x0000 0x0000 0x0000 0x0000 0x0000 0x0000 0x0000 0x0000 0x0000 0x0000 0x0000 0x0000 0x0000 0x0000 0x0000 0x0000 0x0000 0x0000 0x0000 0x0000 0x0001 0x0003 0x0001 0x0000
0x0000 0x0000 0x0000 0x0000 0x0000 0x0000 0x0000 0x0000 0x0000 0x0000 0x0000 0x0000 0x0000 0x0000 0x0000 0x0000 0x0000 0x0000 0x0000 0x0000 0x0000 0x0000 0x0000 0x0000 0x0000 0x0000 0x0000 0x0000
0x0000 0x0000 0x0000 0x0000 0x0000 0x0000 0x0000 0x0000 0x0000 0x0000 0x0000 0x0000 0x0000 0x0000 0x0000 0x0000 0x0000 0x0000 0x0000 0x0000 0x0000 0x0000 0x0000 0x0000 0x0000 0x0000 0x0000 0x0000
0x0000 0x0000 0x0000 0x0000 0x0000 0x0000 0x0000 0x0000 0x0000 0x0000 0x0000 0x0000 0x0000 0x0000 0x0000 0x0000 0x0000 0x0000 0x0000 0x0000 0x0000 0x0000 0x0000 0x0000 0x0000 0x0000 0x0000 0x0000
0x0000 0x0000 0x0000 0x0000 0x0000 0x0000 0x0000 0x0000 0x0000 0x0000 0x0000 0x0000 0x0000 0x0000 0x0000 0x0000 0x0000 0x0000 0x0000 0x0000 0x0000 0x0000 0x0000 0x0000 0x0000 0x0000 0x0000 0x0000
0x0000 0x0000 0x0000 0x0000 0x0000 0x0000 0x0000 0x0000 0x0000 0x0000 0x0000 0x0000 0x0000 0x0000 0x0000 0x0000 0x0000 0x0000 0x0000 0x0000 0x0000 0x0000 0x0000 0x0000 0x0000 0x0000 0x0000 0x0000
0x0000 0x0000 0x0000 0x0000 0x0000 0x0000 0x0000 0x0000 0x0000 0x0000 0x0000 0x0000 0x0000 0x0000 0x0000 0x0000 0x0000 0x0000 0x0000 0x0000 0x0000 0x0000 0x0000 0x0000 0x0000 0x0000 0x0000 0x0000
0x0000 0x0000 0x0000 0x0000 0x0000 0x0000 0x0000 0x0000 0x0000 0x0000 0x0000 0x0000 0x0000 0x0000 0x0000 0x0000 0x0000 0x0000 0x0000 0x0000 0x0000 0x0000 0x0000 0x0000 0x0000 0x0001 0x0001 0x0000
0x0000 0x0000 0x0000 0x0000 0x0000 0x0000 0x0000 0x0000 0x0000 0x0000 0x0000 0x0000 0x0000 0x0000 0x0000 0x0000 0x0000 0x0000 0x0000 0x0000 0x0000 0x0000 0x0000 0x0001 0x0003 0x0006 0x0005 0x0000
0x0000 0x0000 0x0000 0x0000 0x0000 0x0000 0x0000 0x0000 0x0000 0x0000 0x0000 0x0000 0x0000 0x0000 0x0000 0x0000 0x0000 0x0000 0x0000 0x0000 0x0000 0x0000 0x0001 0x0006 0x000C 0x000D 0x000E 0x0000
0x0000 0x0000 0x0000 0x0000 0x0000 0x0000 0x0000 0x0000 0x0000 0x0000 0x0000 0x0000 0x0000 0x0000 0x0000 0x0000 0x0000 0x0000 0x0000 0x0000 0x0000 0x0001 0x0006 0x0013 0x001A 0x001F 0x001F 0x0000
0x0001 0x0000 0x0001 0x0002 0x0002 0x0004 0x0002 0x0003 0x0003 0x0002 0x0000 0x0000 0x0000 0x0000 0x0000 0x0000 0x0000 0x0000 0x0000 0x0000 0x0000 0x0004 0x0015 0x002B 0x002F 0x0034 0x0030 0x0000
0x0005 0x0003 0x0004 0x0006 0x000A 0x000C 0x000D 0x000C 0x000E 0x000B 0x0007 0x0003 0x0001 0x0000 0x0000 0x0000 0x0000 0x0000 0x0000 0x0000 0x0004 0x0014 0x0033 0x0042 0x004A 0x004D 0x0048 0x0000
0x000D 0x0009 0x000E 0x0015 0x001E 0x001F 0x0027 0x002A 0x002C 0x0023 0x0023 0x0016 0x000C 0x0003 0x0001 0x0000 0x0000 0x0000 0x0000 0x0002 0x0012 0x0032 0x0055 0x0056 0x0062 0x0061 0x005D 0x0000
0x001F 0x0021 0x0026 0x0032 0x0031 0x003E 0x004D 0x0053 0x005A 0x004D 0x0053 0x0040 0x0029 0x0018 0x0009 0x0001 0x0000 0x0000 0x0003 0x0012 0x0033 0x0058 0x006F 0x0066 0x0070 0x006B 0x006F 0x0000
0x003F 0x0044 0x0051 0x0057 0x0060 0x006B 0x0076 0x007E 0x0084 0x007C 0x0088 0x0075 0x0067 0x0050 0x0025 0x0009 0x0004 0x0004 0x0011 0x0042 0x0072 0x0088 0x0080 0x006F 0x0072 0x006A 0x0061 0x0000
0x006A 0x0081 0x0084 0x0086 0x0091 0x00A7 0x0095 0x00A4 0x00AA 0x00A8 0x009F 0x00B0 0x00B2 0x009E 0x0068 0x0033 0x0021 0x001C 0x004A 0x0081 0x00A4 0x0091 0x0085 0x0079 0x0072 0x0060 0x0062 0x0000
0x00A7 0x00B6 0x00BA 0x00B5 0x00C5 0x00C7 0x00B7 0x00BE 0x00B2 0x00C3 0x00B5 0x00C9 0x00D8 0x00DE 0x00D5 0x0091 0x0074 0x0074 0x00B4 0x00D1 0x00C5 0x009E 0x0088 0x0076 0x0077 0x005B 0x0059 0x0000
0x00DC 0x00F3 0x00DB 0x00D4 0x00CB 0x00C2 0x00BA 0x00B3 0x00AB 0x00B8 0x00AF 0x00D0 0x00DE 0x00EE 0x010C 0x00FC 0x00F4 0x0129 0x0123 0x0103 0x00D4 0x0099 0x0084 0x0078 0x0079 0x0061 0x005A 0x0000
0x012A 0x0113 0x00EE 0x00C4 0x00AB 0x008F 0x0099 0x0087 0x0080 0x008D 0x0096 0x0095 0x009E 0x00BA 0x00F1 0x013B 0x0195 0x01B9 0x0183 0x011B 0x00CF 0x00C0 0x0086 0x006F 0x007C 0x0063 0x0051 0x0000
0x0129 0x0122 0x00F3 0x00B6 0x0081 0x005C 0x005A 0x004A 0x004F 0x004C 0x0056 0x0055 0x005E 0x006B 0x0094 0x0154 0x01EE 0x0200 0x018E 0x011C 0x00E2 0x00B7 0x008A 0x0069 0x0060 0x0058 0x0044 0x0000
0x0122 0x00FB 0x00E4 0x00B0 0x0068 0x003F 0x0028 0x0022 0x0022 0x0020 0x0022 0x0017 0x0019 0x002E 0x007B 0x015C 0x01B3 0x0184 0x015B 0x0103 0x00D0 0x00BC 0x008E 0x006C 0x004B 0x003D 0x003B 0x0000
0x00D8 0x00E1 0x00DE 0x00CB 0x0079 0x003B 0x001C 0x000C 0x0009 0x0006 0x0007 0x0004 0x000B 0x002F 0x00AC 0x013C 0x0108 0x00EA 0x00E9 0x00F0 0x00CE 0x0098 0x0087 0x006F 0x004D 0x0034 0x002D 0x0000
0x00AE 0x00A6 0x00BC 0x00C5 0x0097 0x0058 0x002C 0x000C 0x0001 0x0000 0x0000 0x0005 0x0025 0x006F 0x010D 0x00D5 0x005E 0x004E 0x007A 0x00AE 0x00AE 0x009B 0x0088 0x006F 0x0056 0x0034 0x0029 0x0000
0x006E 0x007D 0x0095 0x00B5 0x00B2 0x008D 0x0057 0x0023 0x0003 0x0000 0x0000 0x0011 0x005A 0x00CD 0x00F6 0x005E 0x0016 0x000F 0x0031 0x0077 0x0094 0x0088 0x008E 0x0072 0x006A 0x0048 0x0035 0x0000
0x0041 0x003E 0x005A 0x0085 0x00B7 0x00AA 0x007D 0x0042 0x000B 0x0000 0x0002 0x0031 0x00A4 0x00E9 0x00B4 0x0017 0x0002 0x0001 0x0009 0x0031 0x0068 0x0085 0x008D 0x0069 0x0066 0x0051 0x003D 0x0000
0x001F 0x001F 0x002E 0x0055 0x0098 0x00BB 0x00A5 0x0062 0x001F 0x0004 0x000A 0x0064 0x00D3 0x00DC 0x0040 0x0005 0x0000 0x0000 0x0001 0x0013 0x0035 0x006C 0x0086 0x006E 0x007C 0x0071 0x0051 0x0000
0x000F 0x000D 0x0016 0x0029 0x0068 0x0094 0x00AC 0x008E 0x0047 0x001B 0x0027 0x009D 0x00D4 0x0082 0x001F 0x0000 0x0000 0x0000 0x0000 0x0002 0x0012 0x0049 0x0064 0x0074 0x006B 0x007A 0x0068 0x0000
0x0006 0x0004 0x0007 0x0010 0x0033 0x0072 0x00A1 0x00A2 0x0072 0x0043 0x0055 0x00CC 0x00A9 0x004D 0x0005 0x0000 0x0000 0x0000 0x0000 0x0000 0x0004 0x0024 0x004D 0x0078 0x0070 0x007F 0x0091 0x0000
0x0001 0x0000 0x0001 0x0005 0x0017 0x0042 0x007B 0x00AD 0x00A0 0x008B 0x00AA 0x00BB 0x0065 0x0013 0x0000 0x0000 0x0000 0x0000 0x0000 0x0000 0x0000 0x000C 0x0028 0x0063 0x006A 0x0079 0x009C 0x0000
0x0000 0x0000 0x0000 0x0001 0x0008 0x0025 0x0051 0x008F 0x00CC 0x00DA 0x00EA 0x009F 0x0031 0x0005 0x0000 0x0000 0x0000 0x0000 0x0000 0x0000 0x0000 0x0002 0x0017 0x003C 0x0074 0x0086 0x0095 0x0000
0x0000 0x0000 0x0000 0x0000 0x0002 0x0012 0x0030 0x007B 0x00EE 0x0133 0x0124 0x0066 0x000C 0x0001 0x0000 0x0000 0x0000 0x0000 0x0000 0x0000 0x0000 0x0000 0x0007 0x0026 0x0063 0x0094 0x009E 0x0000
0x0000 0x0000 0x0000 0x0000 0x0000 0x0006 0x001E 0x0067 0x0103 0x0160 0x012D 0x0060 0x0005 0x0000 0x0000 0x0000 0x0000 0x0000 0x0000 0x0000 0x0000 0x0000 0x0004 0x0022 0x004E 0x00A5 0x00C8 0x0000
0x0000 0x0000 0x0000 0x0000 0x0000 0x0009 0x001D 0x006D 0x010B 0x0153 0x0129 0x0062 0x0007 0x0000 0x0000 0x0000 0x0000 0x0000 0x0000 0x0000 0x0000 0x0000 0x0006 0x0020 0x004C 0x0095 0x00D2 0x0000
0x0000 0x0000 0x0000 0x0000 0x0003 0x0014 0x0036 0x007E 0x00EF 0x011A 0x00FE 0x009A 0x001B 0x0003 0x0000 0x0000 0x0000 0x0000 0x0000 0x0000 0x0000 0x0002 0x0010 0x0036 0x004B 0x008E 0x00BA 0x0000
0x0000 0x0000 0x0000 0x0002 0x000D 0x0028 0x005F 0x009C 0x00C7 0x00C5 0x00C6 0x00A8 0x0044 0x000B 0x0000 0x0000 0x0000 0x0000 0x0000 0x0000 0x0000 0x0006 0x0020 0x0042 0x0058 0x0079 0x008A 0x0000
0x0001 0x0001 0x0003 0x0008 0x0025 0x0048 0x008F 0x00A4 0x008D 0x0076 0x007C 0x00C3 0x007D 0x0026 0x0001 0x0000 0x0000 0x0000 0x0000 0x0000 0x0000 0x0014 0x0040 0x005B 0x0070 0x0077 0x007A 0x0000
0x0009 0x0004 0x000B 0x001B 0x0045 0x0076 0x00AD 0x00A1 0x005F 0x0030 0x0045 0x009F 0x00C2 0x005C 0x000A 0x0000 0x0000 0x0000 0x0000 0x0000 0x0005 0x0021 0x005D 0x0066 0x0070 0x0070 0x0061 0x0000
0x0014 0x000F 0x0020 0x003C 0x0079 0x00AD 0x009E 0x0086 0x0035 0x000C 0x001A 0x0088 0x00D3 0x00A3 0x0029 0x0000 0x0000 0x0000 0x0000 0x0005 0x0015 0x004C 0x0071 0x0070 0x0073 0x006D 0x0059 0x0000
0x0029 0x002C 0x0042 0x0071 0x0099 0x00B5 0x008E 0x0067 0x0012 0x0002 0x000B 0x004B 0x00BF 0x00CD 0x005E 0x0007 0x0000 0x0000 0x0001 0x0012 0x0038 0x006B 0x007A 0x0072 0x0061 0x0062 0x0053 0x0000
0x004B 0x0048 0x0073 0x0095 0x00B6 0x00A7 0x006D 0x003E 0x0006 0x0000 0x0002 0x0024 0x0078 0x00DC 0x00C0 0x0024 0x0004 0x0001 0x000A 0x0033 0x0064 0x0089 0x0070 0x006B 0x0067 0x0056 0x0048 0x0000
0x0080 0x007F 0x00AA 0x00BD 0x00A3 0x0078 0x0051 0x001A 0x0001 0x0000 0x0000 0x000C 0x0046 0x00A7 0x00E0 0x0069 0x0017 0x000B 0x0024 0x006E 0x008F 0x007A 0x0075 0x0065 0x0060 0x0041 0x0038 0x0000
0x00B5 0x00C3 0x00D0 0x00AD 0x0088 0x0056 0x002B 0x0008 0x0000 0x0000 0x0000 0x0002 0x001D 0x006B 0x00EE 0x00D9 0x0062 0x0043 0x006D 0x00A4 0x00A0 0x0089 0x006A 0x005E 0x004F 0x0031 0x0024 0x0000
0x00F9 0x00F9 0x00D3 0x00A6 0x005E 0x0034 0x0012 0x0003 0x0000 0x0000 0x0000 0x0000 0x000B 0x0025 0x0095 0x0115 0x00E3 0x00A6 0x00D5 0x00D7 0x00B3 0x0096 0x007A 0x005A 0x0041 0x002E 0x001D 0x0000
0x0115 0x0111 0x00BF 0x008D 0x004F 0x0029 0x0018 0x000B 0x0007 0x0006 0x0007 0x0006 0x0007 0x0011 0x0068 0x0116 0x016C 0x0157 0x012D 0x00E7 0x00B9 0x00A0 0x0076 0x0062 0x0039 0x0032 0x002E 0x0000
0x011F 0x010A 0x00C5 0x00A1 0x005E 0x003F 0x0038 0x002A 0x001E 0x0023 0x001C 0x0020 0x002A 0x0033 0x005A 0x0109 0x01AF 0x01A8 0x015D 0x00EB 0x00CF 0x009B 0x007B 0x0061 0x0043 0x0048 0x003B 0x0000
0x00EE 0x00FC 0x00C3 0x00B5 0x0093 0x0075 0x006A 0x0064 0x005E 0x0058 0x0058 0x0065 0x006B 0x0082 0x00A3 0x011A 0x0186 0x01C8 0x015C 0x00F3 0x00CC 0x0099 0x006D 0x006C 0x0054 0x0058 0x005C 0x0000
0x00CE 0x00D7 0x00CF 0x00CB 0x00BA 0x009B 0x0095 0x0093 0x0089 0x0081 0x008F 0x00A2 0x00A7 0x00C7 0x00F2 0x011E 0x0124 0x0144 0x0138 0x00F2 0x00C8 0x0098 0x0072 0x0068 0x0069 0x0066 0x0064 0x0000
0x009B 0x00A2 0x00B2 0x00B9 0x00C3 0x00BC 0x00A5 0x00B0 0x00A0 0x009C 0x00B0 0x00CA 0x00CA 0x00DF 0x00F4 0x00CE 0x00AA 0x00D0 0x00E6 0x00F2 0x00C3 0x0092 0x0077 0x0072 0x0071 0x006F 0x006E 0x0000
0x006F 0x006E 0x0092 0x0095 0x009A 0x00A2 0x00A0 0x00A7 0x009B 0x009B 0x00AF 0x00BF 0x00C5 0x00C5 0x00B5 0x006B 0x0053 0x0051 0x0083 0x00B2 0x00B0 0x0096 0x007C 0x006F 0x0073 0x0068 0x0061 0x0000
0x0040 0x0044 0x005D 0x0060 0x0074 0x0088 0x008A 0x0090 0x0096 0x009B 0x0098 0x00A0 0x00A2 0x008D 0x005C 0x0023 0x001B 0x001B 0x0037 0x0071 0x0089 0x008D 0x0083 0x0074 0x0064 0x0064 0x0060 0x0000
0x0024 0x0022 0x002F 0x003B 0x004D 0x005A 0x006E 0x0072 0x0088 0x0088 0x0083 0x006C 0x0069 0x004E 0x0024 0x000A 0x0005 0x0005 0x000F 0x002D 0x0053 0x0078 0x0077 0x0071 0x006A 0x0060 0x0056 0x0000
0x0015 0x000F 0x0018 0x001D 0x0031 0x003E 0x004C 0x004A 0x005B 0x0066 0x0054 0x003A 0x002F 0x0018 0x0008 0x0003 0x0001 0x0000 0x0002 0x0010 0x0026 0x0049 0x006A 0x006B 0x0062 0x0061 0x005B 0x0000
0x0009 0x0005 0x000A 0x000C 0x0019 0x0024 0x002A 0x002E 0x0036 0x003A 0x0030 0x0017 0x0011 0x0005 0x0001 0x0000 0x0000 0x0000 0x0000 0x0004 0x0012 0x002E 0x0047 0x0058 0x0063 0x005B 0x004F 0x0000
0x0002 0x0001 0x0003 0x0005 0x000B 0x000F 0x0014 0x0014 0x0019 0x0017 0x0010 0x0009 0x0002 0x0001 0x0000 0x0000 0x0000 0x0000 0x0000 0x0000 0x0002 0x0011 0x002E 0x0041 0x0048 0x0049 0x004F 0x0000
0x0000 0x0000 0x0000 0x0001 0x0003 0x0004 0x0007 0x0008 0x000A 0x0006 0x0003 0x0001 0x0000 0x0000 0x0000 0x0000 0x0000 0x0000 0x0000 0x0000 0x0000 0x0006 0x0017 0x0024 0x0031 0x0034 0x0039 0x0000
0x0000 0x0000 0x0000 0x0000 0x0000 0x0001 0x0003 0x0003 0x0002 0x0001 0x0000 0x0000 0x0000 0x0000 0x0000 0x0000 0x0000 0x0000 0x0000 0x0000 0x0000 0x0000 0x0007 0x0014 0x0018 0x001F 0x0025 0x0000
0x0000 0x0000 0x0000 0x0000 0x0000 0x0000 0x0000 0x0000 0x0000 0x0000 0x0000 0x0000 0x0000 0x0000 0x0000 0x0000 0x0000 0x0000 0x0000 0x0000 0x0000 0x0000 0x0002 0x0006 0x000A 0x0013 0x0012 0x0000
0x0000 0x0000 0x0000 0x0000 0x0000 0x0000 0x0000 0x0000 0x0000 0x0000 0x0000 0x0000 0x0000 0x0000 0x0000 0x0000 0x0000 0x0000 0x0000 0x0000 0x0000 0x0000 0x0000 0x0001 0x0004 0x0009 0x0009 0x0000
0x0000 0x0000 0x0000 0x0000 0x0000 0x0000 0x0000 0x0000 0x0000 0x0000 0x0000 0x0000 0x0000 0x0000 0x0000 0x0000 0x0000 0x0000 0x0000 0x0000 0x0000 0x0000 0x0000 0x0000 0x0001 0x0004 0x0003 0x0000
0x0000 0x0000 0x0000 0x0000 0x0000 0x0000 0x0000 0x0000 0x0000 0x0000 0x0000 0x0000 0x0000 0x0000 0x0000 0x0000 0x0000 0x0000 0x0000 0x0000 0x0000 0x0000 0x0000 0x0000 0x0000 0x0001 0x0001 0x0000
0x0000 0x0000 0x0000 0x0000 0x0000 0x0000 0x0000 0x0000 0x0000 0x0000 0x0000 0x0000 0x0000 0x0000 0x0000 0x0000 0x0000 0x0000 0x0000 0x0000 0x0000 0x0000 0x0000 0x0000 0x0000 0x0000 0x0000 0x0000
0x0000 0x0000 0x0000 0x0000 0x0000 0x0000 0x0000 0x0000 0x0000 0x0000 0x0000 0x0000 0x0000 0x0000 0x0000 0x0000 0x0000 0x0000 0x0000 0x0000 0x0000 0x0000 0x0000 0x0000 0x0000 0x0000 0x0000 0x0000
0x0000 0x0000 0x0000 0x0000 0x0000 0x0000 0x0000 0x0000 0x0000 0x0000 0x0000 0x0000 0x0000 0x0000 0x0000 0x0000 0x0000 0x0000 0x0000 0x0000 0x0000 0x0000 0x0000 0x0002 0x0006 0x0006 0x000B 0x0000
0x0000 0x0000 0x0000 0x0000 0x0000 0x0000 0x0000 0x0000 0x0000 0x0000 0x0000 0x0000 0x0000 0x0000 0x0000 0x0000 0x0000 0x0000 0x0000 0x0000 0x0000 0x0000 0x0000 0x0007 0x000E 0x0012 0x001B 0x0000
0x0000 0x0000 0x0000 0x0000 0x0000 0x0000 0x0000 0x0000 0x0000 0x0000 0x0000 0x0000 0x0000 0x0000 0x0000 0x0000 0x0000 0x0000 0x0000 0x0000 0x0000 0x0000 0x0005 0x0012 0x0017 0x0025 0x002B 0x0000
0x0000 0x0000 0x0000 0x0000 0x0000 0x0000 0x0000 0x0000 0x0000 0x0000 0x0000 0x0000 0x0000 0x0000 0x0000 0x0000 0x0000 0x0000 0x0000 0x0000 0x0000 0x0001 0x000C 0x0023 0x002C 0x003B 0x0041 0x0000
0x0000 0x0000 0x0000 0x0000 0x0000 0x0000 0x0000 0x0000 0x0000 0x0000 0x0000 0x0000 0x0000 0x0000 0x0000 0x0000 0x0000 0x0000 0x0000 0x0000 0x0001 0x0005 0x001F 0x0039 0x004B 0x0055 0x0056 0x0000
0x0000 0x0000 0x0000 0x0000 0x0000 0x0001 0x0001 0x0003 0x0002 0x0004 0x0004 0x0003 0x0001 0x0000 0x0000 0x0000 0x0000 0x0000 0x0000 0x0000 0x0004 0x0010 0x0035 0x0056 0x0061 0x0063 0x0066 0x0000
0x0004 0x0002 0x0002 0x0002 0x0002 0x0007 0x0007 0x000A 0x0008 0x000D 0x000C 0x000B 0x0006 0x0003 0x0000 0x0000 0x0000 0x0000 0x0000 0x0003 0x0013 0x0030 0x0058 0x006E 0x0073 0x006C 0x005E 0x0000
0x000D 0x0009 0x000A 0x000B 0x0007 0x001B 0x001F 0x0021 0x0017 0x0026 0x0025 0x001C 0x001B 0x000E 0x0007 0x0001 0x0000 0x0000 0x0001 0x0010 0x002F 0x0052 0x007D 0x007F 0x0061 0x0061 0x0051 0x0000
0x001F 0x001A 0x001F 0x001C 0x001A 0x0036 0x003C 0x0044 0x0034 0x004B 0x0050 0x0048 0x003E 0x0022 0x001A 0x0008 0x0003 0x0002 0x000A 0x0037 0x0067 0x007C 0x0085 0x0064 0x0062 0x004C 0x0042 0x0000
0x0036 0x003B 0x0045 0x003A 0x0046 0x0060 0x0064 0x0074 0x0063 0x0084 0x0087 0x0080 0x0071 0x004E 0x0048 0x001A 0x000F 0x000F 0x0031 0x006B 0x008F 0x0090 0x007F 0x0048 0x004B 0x0044 0x003F 0x0000
0x005C 0x0059 0x0069 0x0073 0x007A 0x0082 0x0094 0x00A4 0x0091 0x00AF 0x00A8 0x00B3 0x009C 0x008A 0x0083 0x0043 0x0029 0x0038 0x0066 0x00A9 0x00B0 0x008E 0x0066 0x003F 0x0053 0x0049 0x0048 0x0000
0x007C 0x0084 0x008E 0x00A6 0x00AA 0x00BE 0x00C3 0x00C3 0x00CD 0x00DE 0x00C8 0x00C4 0x00E5 0x00DC 0x00C9 0x008B 0x006C 0x008D 0x00CE 0x00D4 0x00B4 0x0094 0x0070 0x005B 0x0064 0x006E 0x005B 0x0000
0x0095 0x00A9 0x00AB 0x00CB 0x00C5 0x00DC 0x00DC 0x00E0 0x00E1 0x00DE 0x00D4 0x00D5 0x00F1 0x010C 0x00F3 0x00F1 0x00E1 0x0107 0x0126 0x0100 0x00CD 0x00A1 0x0095 0x0078 0x008B 0x0084 0x0066 0x0000
0x00BF 0x00EF 0x00E7 0x00E7 0x00EA 0x00ED 0x00D7 0x00CD 0x00E3 0x00C7 0x00D4 0x00C8 0x00E7 0x00FE 0x0106 0x0137 0x018F 0x01BB 0x0196 0x013C 0x00F2 0x00E6 0x00BF 0x008D 0x009D 0x0093 0x006C 0x0000
0x00E7 0x0111 0x0105 0x00E5 0x00DD 0x00B2 0x00A4 0x00A1 0x00A6 0x0080 0x0093 0x009D 0x008B 0x00AF 0x00CC 0x0147 0x01FD 0x01FE 0x01A2 0x014B 0x0104 0x00F0 0x00BB 0x0097 0x0098 0x007C 0x005A 0x0000
0x0115 0x011A 0x0124 0x00D2 0x00B2 0x0071 0x0069 0x0053 0x0064 0x0042 0x004A 0x0051 0x0049 0x0057 0x0087 0x0124 0x0200 0x01F8 0x0181 0x012A 0x00F8 0x00F9 0x00C6 0x00AA 0x009B 0x007C 0x0058 0x0000
0x0103 0x010B 0x00FE 0x00B4 0x007D 0x003B 0x002A 0x0021 0x0026 0x0015 0x0011 0x001A 0x0014 0x0027 0x005E 0x0116 0x017D 0x014E 0x0123 0x00EA 0x00CF 0x00B5 0x00AA 0x009E 0x0093 0x0062 0x0044 0x0000
0x0101 0x0103 0x00ED 0x00C0 0x0086 0x0037 0x0019 0x000C 0x0008 0x0004 0x0003 0x0005 0x0007 0x002E 0x008D 0x012F 0x00F0 0x00D3 0x00D5 0x00C9 0x00C9 0x009F 0x00A0 0x009A 0x008C 0x0071 0x003E 0x0000
0x00ED 0x0100 0x00DA 0x00E1 0x00A8 0x005E 0x001F 0x0010 0x0002 0x0000 0x0000 0x0001 0x0010 0x0062 0x00E3 0x0112 0x0075 0x0058 0x008A 0x00AD 0x00AF 0x007F 0x0067 0x0081 0x0077 0x0061 0x0032 0x0000
0x00DE 0x00D3 0x00D9 0x00E3 0x00D6 0x008C 0x0040 0x0029 0x0002 0x0000 0x0000 0x0006 0x002E 0x009D 0x0105 0x00C9 0x0030 0x0025 0x0043 0x007C 0x00A3 0x0088 0x0060 0x0066 0x0079 0x0072 0x0058 0x0000
0x00B5 0x009C 0x00AA 0x00D5 0x00DC 0x00CD 0x007C 0x0046 0x000D 0x0000 0x0000 0x0011 0x0059 0x00D5 0x00F2 0x005A 0x000A 0x0006 0x0016 0x0044 0x006C 0x0081 0x0061 0x0058 0x0065 0x006F 0x0070 0x0000
0x007D 0x005E 0x006D 0x009B 0x00CD 0x00DF 0x00B3 0x0077 0x0023 0x0003 0x0003 0x0027 0x0094 0x00EF 0x00AB 0x0025 0x0001 0x0000 0x0003 0x0020 0x004B 0x0075 0x0073 0x0054 0x0052 0x0067 0x007E 0x0000
0x0054 0x0033 0x0033 0x0065 0x0096 0x00E5 0x00D7 0x00A7 0x0042 0x000C 0x000B 0x004D 0x00C0 0x00E0 0x006D 0x000B 0x0000 0x0000 0x0001 0x000A 0x0021 0x0055 0x0077 0x0070 0x004A 0x0052 0x0060 0x0000
0x002A 0x0015 0x001C 0x0029 0x005C 0x00A0 0x00E3 0x00D8 0x006C 0x002E 0x002C 0x0087 0x00E5 0x00A8 0x0036 0x0003 0x0000 0x0000 0x0000 0x0002 0x000E 0x0031 0x006C 0x006E 0x0055 0x0044 0x0059 0x0000
0x0017 0x0006 0x0008 0x0010 0x002E 0x0064 0x00BC 0x00D6 0x0095 0x005B 0x0057 0x00B5 0x00DE 0x005C 0x0013 0x0000 0x0000 0x0000 0x0000 0x0000 0x0003 0x0015 0x004F 0x006D 0x0066 0x0047 0x0060 0x0000
0x0007 0x0002 0x0001 0x0003 0x000F 0x002C 0x0087 0x00B1 0x00AE 0x009F 0x00BA 0x00DF 0x00AD 0x002A 0x0004 0x0000 0x0000 0x0000 0x0000 0x0000 0x0000 0x0006 0x0027 0x005C 0x006D 0x0052 0x006C 0x0000
0x0002 0x0000 0x0000 0x0000 0x0004 0x001A 0x0042 0x007D 0x00D0 0x0102 0x0103 0x00E2 0x006C 0x000B 0x0000 0x0000 0x0000 0x0000 0x0000 0x0000 0x0000 0x0000 0x0014 0x0047 0x0064 0x006A 0x007F 0x0000
0x0000 0x0000 0x0000 0x0000 0x0000 0x000E 0x0025 0x0055 0x00EC 0x0149 0x015B 0x00E2 0x0030 0x0003 0x0000 0x0000 0x0000 0x0000 0x0000 0x0000 0x0000 0x0000 0x0003 0x002C 0x0052 0x007D 0x009D 0x0000
0x0000 0x0000 0x0000 0x0000 0x0000 0x0003 0x0016 0x0042 0x010C 0x0182 0x0168 0x00B8 0x001C 0x0000 0x0000 0x0000 0x0000 0x0000 0x0000 0x0000 0x0000 0x0000 0x0001 0x0017 0x0044 0x00A4 0x00A9 0x0000
0x0000 0x0000 0x0000 0x0000 0x0000 0x0002 0x0014 0x003F 0x010D 0x0183 0x0172 0x00B3 0x001C 0x0001 0x0000 0x0000 0x0000 0x0000 0x0000 0x0000 0x0000 0x0000 0x0002 0x0018 0x0047 0x00B1 0x00B0 0x0000
0x0000 0x0000 0x0000 0x0000 0x0001 0x0007 0x0033 0x0059 0x010B 0x0164 0x0142 0x00BF 0x0045 0x0004 0x0000 0x0000 0x0000 0x0000 0x0000 0x0000 0x0000 0x0000 0x0008 0x002D 0x0052 0x00A7 0x0098 0x0000
0x0003 0x0000 0x0000 0x0001 0x0004 0x0014 0x0056 0x007F 0x00D6 0x0115 0x010F 0x00E9 0x0072 0x001D 0x0001 0x0000 0x0000 0x0000 0x0000 0x0000 0x0000 0x0001 0x0013 0x0046 0x0064 0x0082 0x0089 0x0000
0x000C 0x0004 0x0002 0x0005 0x000F 0x0036 0x008A 0x00B5 0x00C9 0x00A7 0x00B9 0x00EA 0x00B9 0x003E 0x0007 0x0000 0x0000 0x0000 0x0000 0x0000 0x0000 0x0007 0x002B 0x0059 0x0074 0x0060 0x0076 0x0000
0x001B 0x000A 0x0009 0x0012 0x0030 0x0071 0x00BB 0x00E1 0x0093 0x0059 0x006C 0x00C1 0x00E4 0x008C 0x0021 0x0000 0x0000 0x0000 0x0000 0x0000 0x0002 0x0012 0x0045 0x0068 0x006C 0x0055 0x0066 0x0000
0x0038 0x001E 0x001D 0x0033 0x006D 0x00A7 0x00D5 0x00D8 0x0086 0x0023 0x002A 0x0087 0x0104 0x00B8 0x0068 0x0003 0x0000 0x0000 0x0000 0x0000 0x000C 0x002E 0x0060 0x0066 0x005A 0x0051 0x0069 0x0000
0x005B 0x0034 0x0047 0x0067 0x00A8 0x00D1 0x00DC 0x00B5 0x0044 0x000B 0x000C 0x004B 0x00C8 0x00E9 0x00A5 0x0012 0x0000 0x0000 0x0000 0x0006 0x0028 0x0050 0x0067 0x0062 0x0053 0x0057 0x0057 0x0000
0x008E 0x0062 0x0066 0x0091 0x00E2 0x00E3 0x00A2 0x0072 0x0022 0x0001 0x0003 0x0025 0x0081 0x00E6 0x00D7 0x0038 0x0005 0x0002 0x0006 0x0019 0x0045 0x0071 0x0077 0x005C 0x005C 0x0063 0x006E 0x0000
0x00B3 0x009E 0x00BE 0x00D5 0x00EB 0x00CD 0x0074 0x0046 0x000B 0x0000 0x0000 0x000C 0x0035 0x00CB 0x00FA 0x0096 0x001A 0x000D 0x0019 0x0042 0x0077 0x008A 0x007C 0x005C 0x0065 0x006D 0x0067 0x0000
0x00DF 0x00E3 0x00DF 0x00DD 0x00D3 0x0098 0x0039 0x001D 0x0003 0x0000 0x0000 0x0002 0x0019 0x0086 0x00E9 0x0105 0x0059 0x002F 0x003F 0x007F 0x0098 0x008E 0x0078 0x006A 0x006E 0x0063 0x006C 0x0000
0x00F2 0x0111 0x0116 0x00ED 0x009A 0x0054 0x0022 0x000A 0x0000 0x0000 0x0000 0x0001 0x0008 0x003B 0x00B4 0x0133 0x00BE 0x0090 0x0098 0x00C4 0x00AA 0x0098 0x0078 0x0075 0x0073 0x0056 0x004C 0x0000
0x0106 0x0128 0x0103 0x00C7 0x006D 0x0034 0x0014 0x0008 0x0003 0x0003 0x0003 0x0003 0x0004 0x0014 0x0055 0x0116 0x014E 0x00F8 0x00F6 0x0100 0x00C1 0x00A6 0x008D 0x008B 0x007C 0x0054 0x0034 0x0000
0x0111 0x012F 0x0127 0x00DB 0x007F 0x0041 0x0021 0x001A 0x0018 0x0019 0x0010 0x0015 0x0017 0x0019 0x0045 0x00E8 0x01B4 0x01A1 0x016C 0x0121 0x00E9 0x00D1 0x00AA 0x00A1 0x0079 0x0069 0x0046 0x0000
0x00FF 0x0127 0x011E 0x00E5 0x00A1 0x006C 0x005C 0x0048 0x003F 0x0049 0x003C 0x004F 0x004A 0x0055 0x007A 0x00E8 0x01DB 0x01E8 0x01AB 0x013A 0x0114 0x00EA 0x00BB 0x00A4 0x0083 0x006C 0x0056 0x0000
0x00E0 0x00FF 0x00FF 0x00ED 0x00D2 0x00AF 0x00A9 0x0093 0x0096 0x0089 0x0088 0x008D 0x009F 0x00A9 0x00D9 0x0110 0x01A9 0x01FF 0x01B6 0x0140 0x011C 0x00F2 0x00C0 0x00AB 0x007D 0x007C 0x0076 0x0000
0x00AC 0x00D4 0x00C1 0x00D9 0x00D8 0x00E3 0x00E3 0x00CA 0x00D4 0x00C3 0x00C4 0x00C2 0x00DC 0x00F5 0x0106 0x011D 0x013A 0x0175 0x0184 0x012A 0x00F8 0x00CB 0x00AD 0x0092 0x0077 0x007A 0x0071 0x0000
0x0096 0x009A 0x009C 0x00C3 0x00CE 0x00F7 0x00F3 0x00F0 0x00E8 0x00E2 0x00EB 0x00D5 0x00F5 0x010A 0x010C 0x00FB 0x00C0 0x00E5 0x010C 0x00FB 0x00DB 0x00AC 0x0096 0x007D 0x006A 0x0082 0x0072 0x0000
0x0073 0x006F 0x007C 0x0098 0x00AB 0x00CE 0x00C9 0x00D0 0x00D4 0x00D5 0x00D3 0x00D4 0x00DD 0x00E2 0x00C0 0x009E 0x0053 0x0062 0x009E 0x00CC 0x00BF 0x0091 0x0073 0x0060 0x005F 0x006C 0x0059 0x0000
0x0057 0x0041 0x0051 0x0067 0x007E 0x008D 0x0097 0x00AB 0x00A8 0x00B1 0x00B6 0x00B8 0x00AB 0x009A 0x007F 0x0049 0x001E 0x0021 0x0036 0x008F 0x00A5 0x009F 0x006E 0x0053 0x0053 0x0057 0x0049 0x0000
0x0032 0x0025 0x0026 0x002D 0x0048 0x004D 0x005E 0x006C 0x007F 0x0078 0x007E 0x007F 0x006C 0x0051 0x0031 0x0016 0x0008 0x0006 0x0012 0x0053 0x007A 0x0096 0x0076 0x0050 0x0052 0x0048 0x0037 0x0000
0x001C 0x0012 0x000C 0x000F 0x001D 0x002A 0x0037 0x0049 0x0043 0x004D 0x0050 0x004C 0x0033 0x0025 0x0013 0x0007 0x0002 0x0000 0x0002 0x0017 0x0043 0x0075 0x0085 0x0063 0x0063 0x004F 0x003A 0x0000
0x000B 0x0005 0x0002 0x0002 0x0007 0x0014 0x0019 0x0023 0x001D 0x0024 0x0027 0x0022 0x0014 0x000E 0x0006 0x0001 0x0000 0x0000 0x0000 0x0005 0x001F 0x0041 0x007B 0x0075 0x006A 0x0061 0x004F 0x0000
0x0002 0x0001 0x0000 0x0000 0x0001 0x0005 0x0005 0x000D 0x000B 0x000F 0x000C 0x000E 0x0007 0x0002 0x0000 0x0000 0x0000 0x0000 0x0000 0x0000 0x000A 0x001C 0x0058 0x0074 0x006D 0x0068 0x0058 0x0000
0x0000 0x0000 0x0000 0x0000 0x0000 0x0000 0x0001 0x0002 0x0002 0x0003 0x0003 0x0001 0x0000 0x0000 0x0000 0x0000 0x0000 0x0000 0x0000 0x0000 0x0002 0x000D 0x002D 0x0057 0x0056 0x005F 0x0066 0x0000
0x0000 0x0000 0x0000 0x0000 0x0000 0x0000 0x0000 0x0000 0x0000 0x0000 0x0000 0x0000 0x0000 0x0000 0x0000 0x0000 0x0000 0x0000 0x0000 0x0000 0x0000 0x0003 0x0017 0x0036 0x0046 0x0051 0x0059 0x0000
0x0000 0x0000 0x0000 0x0000 0x0000 0x0000 0x0000 0x0000 0x0000 0x0000 0x0000 0x0000 0x0000 0x0000 0x0000 0x0000 0x0000 0x0000 0x0000 0x0000 0x0000 0x0000 0x0008 0x001F 0x0029 0x003D 0x0051 0x0000
0x0000 0x0000 0x0000 0x0000 0x0000 0x0000 0x0000 0x0000 0x0000 0x0000 0x0000 0x0000 0x0000 0x0000 0x0000 0x0000 0x0000 0x0000 0x0000 0x0000 0x0000 0x0000 0x0002 0x000F 0x001A 0x0029 0x0037 0x0000
0x0000 0x0000 0x0000 0x0000 0x0000 0x0000 0x0000 0x0000 0x0000 0x0000 0x0000 0x0000 0x0000 0x0000 0x0000 0x0000 0x0000 0x0000 0x0000 0x0000 0x0000 0x0000 0x0000 0x0005 0x000E 0x000F 0x001A 0x0000
0x0000 0x0000 0x0000 0x0000 0x0000 0x0000 0x0000 0x0000 0x0000 0x0000 0x0000 0x0000 0x0000 0x0000 0x0000 0x0000 0x0000 0x0000 0x0000 0x0000 0x0000 0x0000 0x0000 0x0002 0x0004 0x0003 0x0008 0x0000
0x0000 0x0000 0x0000 0x0000 0x0000 0x0000 0x0000 0x0000 0x0000 0x0000 0x0000 0x0000 0x0000 0x0000 0x0000 0x0000 0x0000 0x0000 0x0000 0x0000 0x0000 0x0000 0x0000 0x0000 0x0000 0x0000 0x0000 0x0000